xof 0303txt 0064
#Exported from Wings 3D 1.4.1
		Material cube1_auv {
			1.0; 1.0; 1.0; 1.0;;
		1.0;
			1.0; 1.0; 1.0;;
			0.0; 0.0; 0.0;;
			TextureFilename { "wallsandceilingtexture.PNG"; }
		}
Frame cube1 {
	Mesh {
		24;
		-6.268, -0.8712519577599993, 6.268;,
		-6.268, 5.8458393507616515, 6.268;,
		6.268, 5.8458393507616515, 6.268;,
		6.268, -0.8712519577599993, 6.268;,
		-6.268, -0.8712519577599993, 6.268;,
		6.268, -0.8712519577599993, 6.268;,
		6.268, -0.8712519577599993, -6.268;,
		-6.268, -0.8712519577599993, -6.268;,
		-6.268, -0.8712519577599993, 6.268;,
		-6.268, -0.8712519577599993, -6.268;,
		-6.268, 5.8458393507616515, -6.268;,
		-6.268, 5.8458393507616515, 6.268;,
		-6.268, 5.8458393507616515, 6.268;,
		-6.268, 5.8458393507616515, -6.268;,
		6.268, 5.8458393507616515, -6.268;,
		6.268, 5.8458393507616515, 6.268;,
		6.268, 5.8458393507616515, 6.268;,
		6.268, 5.8458393507616515, -6.268;,
		6.268, -0.8712519577599993, -6.268;,
		6.268, -0.8712519577599993, 6.268;,
		-6.268, -0.8712519577599993, -6.268;,
		6.268, -0.8712519577599993, -6.268;,
		6.268, 5.8458393507616515, -6.268;,
		-6.268, 5.8458393507616515, -6.268;;

		6;
		4;0, 1, 2, 3 ;,
		4;4, 5, 6, 7 ;,
		4;8, 9, 10, 11 ;,
		4;12, 13, 14, 15 ;,
		4;16, 17, 18, 19 ;,
		4;20, 21, 22, 23 ;;

		MeshNormals {
			24;		0.5773502691896258, 0.5773502691896258, -0.5773502691896258;,
		0.5773502691896258, -0.5773502691896258, -0.5773502691896258;,
		-0.5773502691896258, -0.5773502691896258, -0.5773502691896258;,
		-0.5773502691896258, 0.5773502691896258, -0.5773502691896258;,
		0.5773502691896258, 0.5773502691896258, -0.5773502691896258;,
		-0.5773502691896258, 0.5773502691896258, -0.5773502691896258;,
		-0.5773502691896258, 0.5773502691896258, 0.5773502691896258;,
		0.5773502691896258, 0.5773502691896258, 0.5773502691896258;,
		0.5773502691896258, 0.5773502691896258, -0.5773502691896258;,
		0.5773502691896258, 0.5773502691896258, 0.5773502691896258;,
		0.5773502691896258, -0.5773502691896258, 0.5773502691896258;,
		0.5773502691896258, -0.5773502691896258, -0.5773502691896258;,
		0.5773502691896258, -0.5773502691896258, -0.5773502691896258;,
		0.5773502691896258, -0.5773502691896258, 0.5773502691896258;,
		-0.5773502691896258, -0.5773502691896258, 0.5773502691896258;,
		-0.5773502691896258, -0.5773502691896258, -0.5773502691896258;,
		-0.5773502691896258, -0.5773502691896258, -0.5773502691896258;,
		-0.5773502691896258, -0.5773502691896258, 0.5773502691896258;,
		-0.5773502691896258, 0.5773502691896258, 0.5773502691896258;,
		-0.5773502691896258, 0.5773502691896258, -0.5773502691896258;,
		0.5773502691896258, 0.5773502691896258, 0.5773502691896258;,
		-0.5773502691896258, 0.5773502691896258, 0.5773502691896258;,
		-0.5773502691896258, -0.5773502691896258, 0.5773502691896258;,
		0.5773502691896258, -0.5773502691896258, 0.5773502691896258;;
		6;
		4;0, 1, 2, 3 ;,
		4;4, 5, 6, 7 ;,
		4;8, 9, 10, 11 ;,
		4;12, 13, 14, 15 ;,
		4;16, 17, 18, 19 ;,
		4;20, 21, 22, 23 ;;
		}
		MeshTextureCoords {
		24;
		0.19740000000000008, 0.18591111111111125;,
		0.19740000000000008, 0.0073030673831370185;,
		7.333333333334191e-4, 0.0073030673831370185;,
		7.333333333334191e-4, 0.18591111111111114;,
		0.05113177777777789, 0.41707933333333336;,
		0.12342377777777787, 0.41707933333333336;,
		0.12342377777777787, 0.34478733333333345;,
		0.05113177777777789, 0.34478733333333345;,
		0.003196000000000008, 0.178803067383137;,
		0.2001373333333333, 0.178803067383137;,
		0.2001373333333333, 1.9502365516277376e-4;,
		0.003196000000000008, 1.9502365516277376e-4;,
		0.7429888888888889, 0.5744030673831368;,
		0.7429888888888889, 0.5030697340498036;,
		0.6716555555555556, 0.5030697340498036;,
		0.6716555555555556, 0.5744030673831368;,
		0.19428888888888887, 0.009325289605359277;,
		0.008955555555555578, 0.009325289605359277;,
		0.008955555555555578, 0.1879333333333334;,
		0.19428888888888887, 0.1879333333333334;,
		0.002588888888888939, 0.18208084516091494;,
		0.20325555555555552, 0.18208084516091494;,
		0.20325555555555552, 0.0034728014329408197;,
		0.002588888888888939, 0.0034728014329408197;;
		}
		MeshMaterialList {
			1;
			6;
			0;
			0;
			0;
			0;
			0;
			0;
			;
			{cube1_auv}
		}
	}}