xof 0303txt 0064
#Exported from Wings 3D 1.4.1
		Material default {
			0.7898538076923077; 0.8133333333333334; 0.6940444444444445; 1.0;;
		1.0;
			1.0; 1.0; 1.0;;
			0.0; 0.0; 0.0;;
		}
Frame cube2 {
	Mesh {
		152;
		-0.7944159999999999, 0.6057499997762553, 0.7944159999999999;,
		0.7944159999999999, 0.6057499997762553, 0.7944159999999999;,
		0.7944159999999999, 1.1809544965561836, 0.7944159999999999;,
		-0.7944159999999999, 1.1809544965561836, 0.7944159999999999;,
		-0.7944159999999999, 0.6057499997762553, 0.7944159999999999;,
		-0.7944159999999999, 0.6057499997762553, -0.7944159999999999;,
		-0.7944159999999999, 0.6057499997762553, -0.7944159999999999;,
		-0.7944159999999999, 0.6057499997762553, 0.7944159999999999;,
		-0.7944159999999999, 0.6057499997762553, 0.7944159999999999;,
		-0.7944159999999999, 1.1809544965561836, 0.7944159999999999;,
		-0.7944159999999999, 1.1809544965561836, -0.7944159999999999;,
		-0.7944159999999999, 0.6057499997762553, -0.7944159999999999;,
		-0.7944159999999999, 0.6057499997762553, 0.7944159999999999;,
		-0.7944159999999999, 0.6057499997762553, 0.7944159999999999;,
		0.7944159999999999, 0.6057499997762553, 0.7944159999999999;,
		0.7944159999999999, 0.6057499997762553, 0.7944159999999999;,
		0.7944159999999999, 0.6057499997762553, 0.7944159999999999;,
		0.7944159999999999, 0.6057499997762553, -0.7944159999999999;,
		0.7944159999999999, 1.1809544965561836, -0.7944159999999999;,
		0.7944159999999999, 1.1809544965561836, 0.7944159999999999;,
		0.7944159999999999, 0.6057499997762553, 0.7944159999999999;,
		0.7944159999999999, 0.6057499997762553, 0.7944159999999999;,
		0.7944159999999999, 0.6057499997762553, -0.7944159999999999;,
		0.7944159999999999, 0.6057499997762553, -0.7944159999999999;,
		-0.7944159999999999, 0.6057499997762553, -0.7944159999999999;,
		0.7944159999999999, 0.6057499997762553, -0.7944159999999999;,
		0.7944159999999999, 0.6057499997762553, -0.7944159999999999;,
		-0.7944159999999999, 0.6057499997762553, -0.7944159999999999;,
		-0.7944159999999999, 0.6057499997762553, -0.7944159999999999;,
		-0.7944159999999999, 1.1809544965561836, -0.7944159999999999;,
		0.7944159999999999, 1.1809544965561836, -0.7944159999999999;,
		0.7944159999999999, 0.6057499997762553, -0.7944159999999999;,
		-0.7944159999999999, 1.1809544965561836, 0.7944159999999999;,
		0.7944159999999999, 1.1809544965561836, 0.7944159999999999;,
		0.705180614151865, 1.2701898824045823, 0.705180614151865;,
		-0.705180614151865, 1.2701898824045823, 0.705180614151865;,
		-0.7944159999999999, 1.1809544965561836, 0.7944159999999999;,
		-0.705180614151865, 1.2701898824045823, 0.705180614151865;,
		-0.705180614151865, 1.2701898824045823, -0.705180614151865;,
		-0.7944159999999999, 1.1809544965561836, -0.7944159999999999;,
		0.7944159999999999, 1.1809544965561836, 0.7944159999999999;,
		0.7944159999999999, 1.1809544965561836, -0.7944159999999999;,
		0.705180614151865, 1.2701898824045823, -0.705180614151865;,
		0.705180614151865, 1.2701898824045823, 0.705180614151865;,
		-0.7944159999999999, 1.1809544965561836, -0.7944159999999999;,
		-0.705180614151865, 1.2701898824045823, -0.705180614151865;,
		0.705180614151865, 1.2701898824045823, -0.705180614151865;,
		0.7944159999999999, 1.1809544965561836, -0.7944159999999999;,
		-0.705180614151865, 1.2701898824045823, 0.705180614151865;,
		0.705180614151865, 1.2701898824045823, 0.705180614151865;,
		0.4828618394586172, 1.3515642016805016, 0.4828618394586172;,
		-0.4828618394586172, 1.3515642016805016, 0.4828618394586172;,
		-0.705180614151865, 1.2701898824045823, 0.705180614151865;,
		-0.4828618394586172, 1.3515642016805016, 0.4828618394586172;,
		-0.4828618394586172, 1.3515642016805016, -0.4828618394586172;,
		-0.705180614151865, 1.2701898824045823, -0.705180614151865;,
		0.705180614151865, 1.2701898824045823, 0.705180614151865;,
		0.705180614151865, 1.2701898824045823, -0.705180614151865;,
		0.4828618394586172, 1.3515642016805016, -0.4828618394586172;,
		0.4828618394586172, 1.3515642016805016, 0.4828618394586172;,
		0.705180614151865, 1.2701898824045823, -0.705180614151865;,
		-0.705180614151865, 1.2701898824045823, -0.705180614151865;,
		-0.4828618394586172, 1.3515642016805016, -0.4828618394586172;,
		0.4828618394586172, 1.3515642016805016, -0.4828618394586172;,
		-0.4828618394586172, 1.3515642016805016, 0.4828618394586172;,
		0.4828618394586172, 1.3515642016805016, 0.4828618394586172;,
		0.10745260141051985, 1.4074031940840526, 0.10745260141051985;,
		-0.10745260141051985, 1.4074031940840526, 0.10745260141051985;,
		-0.4828618394586172, 1.3515642016805016, 0.4828618394586172;,
		-0.10745260141051985, 1.4074031940840526, 0.10745260141051985;,
		-0.10745260141051985, 1.4074031940840526, -0.10745260141051985;,
		-0.4828618394586172, 1.3515642016805016, -0.4828618394586172;,
		0.4828618394586172, 1.3515642016805016, 0.4828618394586172;,
		0.4828618394586172, 1.3515642016805016, -0.4828618394586172;,
		0.10745260141051985, 1.4074031940840526, -0.10745260141051985;,
		0.10745260141051985, 1.4074031940840526, 0.10745260141051985;,
		0.4828618394586172, 1.3515642016805016, -0.4828618394586172;,
		-0.4828618394586172, 1.3515642016805016, -0.4828618394586172;,
		-0.10745260141051985, 1.4074031940840526, -0.10745260141051985;,
		0.10745260141051985, 1.4074031940840526, -0.10745260141051985;,
		-0.10745260141051985, 1.4074031940840526, 0.10745260141051985;,
		0.10745260141051985, 1.4074031940840526, 0.10745260141051985;,
		0.10745260141051985, 1.4074031940840526, -0.10745260141051985;,
		-0.10745260141051985, 1.4074031940840526, -0.10745260141051985;,
		-0.7944159999999999, 0.6057499997762553, 0.7944159999999999;,
		-0.7944159999999999, 0.6057499997762553, -0.7944159999999999;,
		-0.7944159999999999, 1.1809544965561836, -0.7944159999999999;,
		-0.7944159999999999, 1.1809544965561836, 0.7944159999999999;,
		-0.7944159999999999, 0.6057499997762553, 0.7944159999999999;,
		-0.7944159999999999, 1.1809544965561836, 0.7944159999999999;,
		0.7944159999999999, 1.1809544965561836, 0.7944159999999999;,
		0.7944159999999999, 0.6057499997762553, 0.7944159999999999;,
		0.7944159999999999, 0.6057499997762553, 0.7944159999999999;,
		0.7944159999999999, 1.1809544965561836, 0.7944159999999999;,
		0.7944159999999999, 1.1809544965561836, -0.7944159999999999;,
		0.7944159999999999, 0.6057499997762553, -0.7944159999999999;,
		-0.7944159999999999, 0.6057499997762553, -0.7944159999999999;,
		0.7944159999999999, 0.6057499997762553, -0.7944159999999999;,
		0.7944159999999999, 1.1809544965561836, -0.7944159999999999;,
		-0.7944159999999999, 1.1809544965561836, -0.7944159999999999;,
		-0.7944159999999999, 1.1809544965561836, 0.7944159999999999;,
		-0.7944159999999999, 1.1809544965561836, -0.7944159999999999;,
		-0.705180614151865, 1.2701898824045823, -0.705180614151865;,
		-0.705180614151865, 1.2701898824045823, 0.705180614151865;,
		-0.7944159999999999, 1.1809544965561836, 0.7944159999999999;,
		-0.705180614151865, 1.2701898824045823, 0.705180614151865;,
		0.705180614151865, 1.2701898824045823, 0.705180614151865;,
		0.7944159999999999, 1.1809544965561836, 0.7944159999999999;,
		0.7944159999999999, 1.1809544965561836, 0.7944159999999999;,
		0.705180614151865, 1.2701898824045823, 0.705180614151865;,
		0.705180614151865, 1.2701898824045823, -0.705180614151865;,
		0.7944159999999999, 1.1809544965561836, -0.7944159999999999;,
		-0.7944159999999999, 1.1809544965561836, -0.7944159999999999;,
		0.7944159999999999, 1.1809544965561836, -0.7944159999999999;,
		0.705180614151865, 1.2701898824045823, -0.705180614151865;,
		-0.705180614151865, 1.2701898824045823, -0.705180614151865;,
		-0.705180614151865, 1.2701898824045823, 0.705180614151865;,
		-0.705180614151865, 1.2701898824045823, -0.705180614151865;,
		-0.4828618394586172, 1.3515642016805016, -0.4828618394586172;,
		-0.4828618394586172, 1.3515642016805016, 0.4828618394586172;,
		-0.705180614151865, 1.2701898824045823, 0.705180614151865;,
		-0.4828618394586172, 1.3515642016805016, 0.4828618394586172;,
		0.4828618394586172, 1.3515642016805016, 0.4828618394586172;,
		0.705180614151865, 1.2701898824045823, 0.705180614151865;,
		0.705180614151865, 1.2701898824045823, 0.705180614151865;,
		0.4828618394586172, 1.3515642016805016, 0.4828618394586172;,
		0.4828618394586172, 1.3515642016805016, -0.4828618394586172;,
		0.705180614151865, 1.2701898824045823, -0.705180614151865;,
		0.705180614151865, 1.2701898824045823, -0.705180614151865;,
		0.4828618394586172, 1.3515642016805016, -0.4828618394586172;,
		-0.4828618394586172, 1.3515642016805016, -0.4828618394586172;,
		-0.705180614151865, 1.2701898824045823, -0.705180614151865;,
		-0.4828618394586172, 1.3515642016805016, 0.4828618394586172;,
		-0.4828618394586172, 1.3515642016805016, -0.4828618394586172;,
		-0.10745260141051985, 1.4074031940840526, -0.10745260141051985;,
		-0.10745260141051985, 1.4074031940840526, 0.10745260141051985;,
		-0.4828618394586172, 1.3515642016805016, 0.4828618394586172;,
		-0.10745260141051985, 1.4074031940840526, 0.10745260141051985;,
		0.10745260141051985, 1.4074031940840526, 0.10745260141051985;,
		0.4828618394586172, 1.3515642016805016, 0.4828618394586172;,
		0.4828618394586172, 1.3515642016805016, 0.4828618394586172;,
		0.10745260141051985, 1.4074031940840526, 0.10745260141051985;,
		0.10745260141051985, 1.4074031940840526, -0.10745260141051985;,
		0.4828618394586172, 1.3515642016805016, -0.4828618394586172;,
		0.4828618394586172, 1.3515642016805016, -0.4828618394586172;,
		0.10745260141051985, 1.4074031940840526, -0.10745260141051985;,
		-0.10745260141051985, 1.4074031940840526, -0.10745260141051985;,
		-0.4828618394586172, 1.3515642016805016, -0.4828618394586172;,
		-0.10745260141051985, 1.4074031940840526, 0.10745260141051985;,
		-0.10745260141051985, 1.4074031940840526, -0.10745260141051985;,
		0.10745260141051985, 1.4074031940840526, -0.10745260141051985;,
		0.10745260141051985, 1.4074031940840526, 0.10745260141051985;;

		38;
		4;0, 1, 2, 3 ;,
		4;4, 5, 6, 7 ;,
		4;8, 9, 10, 11 ;,
		4;12, 13, 14, 15 ;,
		4;16, 17, 18, 19 ;,
		4;20, 21, 22, 23 ;,
		4;24, 25, 26, 27 ;,
		4;28, 29, 30, 31 ;,
		4;32, 33, 34, 35 ;,
		4;36, 37, 38, 39 ;,
		4;40, 41, 42, 43 ;,
		4;44, 45, 46, 47 ;,
		4;48, 49, 50, 51 ;,
		4;52, 53, 54, 55 ;,
		4;56, 57, 58, 59 ;,
		4;60, 61, 62, 63 ;,
		4;64, 65, 66, 67 ;,
		4;68, 69, 70, 71 ;,
		4;72, 73, 74, 75 ;,
		4;76, 77, 78, 79 ;,
		4;80, 81, 82, 83 ;,
		4;84, 85, 86, 87 ;,
		4;88, 89, 90, 91 ;,
		4;92, 93, 94, 95 ;,
		4;96, 97, 98, 99 ;,
		4;100, 101, 102, 103 ;,
		4;104, 105, 106, 107 ;,
		4;108, 109, 110, 111 ;,
		4;112, 113, 114, 115 ;,
		4;116, 117, 118, 119 ;,
		4;120, 121, 122, 123 ;,
		4;124, 125, 126, 127 ;,
		4;128, 129, 130, 131 ;,
		4;132, 133, 134, 135 ;,
		4;136, 137, 138, 139 ;,
		4;140, 141, 142, 143 ;,
		4;144, 145, 146, 147 ;,
		4;148, 149, 150, 151 ;;

		MeshNormals {
			152;		-0.7071067811865475, 0.0, 0.7071067811865475;,
		0.7071067811865475, 0.0, 0.7071067811865475;,
		0.6101314768991308, 0.505449465123637, 0.6101314768991308;,
		-0.6101314768991308, 0.505449465123637, 0.6101314768991308;,
		-0.7071067811865475, 0.0, 0.7071067811865475;,
		-0.7071067811865475, 0.0, -0.7071067811865475;,
		0.7071067811865475, 0.0, 0.7071067811865475;,
		0.7071067811865475, 0.0, -0.7071067811865475;,
		-0.7071067811865475, 0.0, 0.7071067811865475;,
		-0.6101314768991308, 0.505449465123637, 0.6101314768991308;,
		-0.6101314768991308, 0.505449465123637, -0.6101314768991308;,
		-0.7071067811865475, 0.0, -0.7071067811865475;,
		-0.7071067811865475, 0.0, 0.7071067811865475;,
		0.7071067811865475, 0.0, -0.7071067811865475;,
		-0.7071067811865475, 0.0, -0.7071067811865475;,
		0.7071067811865475, 0.0, 0.7071067811865475;,
		0.7071067811865475, 0.0, 0.7071067811865475;,
		0.7071067811865475, 0.0, -0.7071067811865475;,
		0.6101314768991308, 0.505449465123637, -0.6101314768991308;,
		0.6101314768991308, 0.505449465123637, 0.6101314768991308;,
		0.7071067811865475, 0.0, 0.7071067811865475;,
		-0.7071067811865475, 0.0, -0.7071067811865475;,
		-0.7071067811865475, 0.0, 0.7071067811865475;,
		0.7071067811865475, 0.0, -0.7071067811865475;,
		-0.7071067811865475, 0.0, -0.7071067811865475;,
		0.7071067811865475, 0.0, -0.7071067811865475;,
		-0.7071067811865475, 0.0, 0.7071067811865475;,
		0.7071067811865475, 0.0, 0.7071067811865475;,
		-0.7071067811865475, 0.0, -0.7071067811865475;,
		-0.6101314768991308, 0.505449465123637, -0.6101314768991308;,
		0.6101314768991308, 0.505449465123637, -0.6101314768991308;,
		0.7071067811865475, 0.0, -0.7071067811865475;,
		-0.6101314768991308, 0.505449465123637, 0.6101314768991308;,
		0.6101314768991308, 0.505449465123637, 0.6101314768991308;,
		0.2909103558301977, 0.9114506732355271, 0.2909103558301977;,
		-0.2909103558301977, 0.9114506732355271, 0.2909103558301977;,
		-0.6101314768991308, 0.505449465123637, 0.6101314768991308;,
		-0.2909103558301977, 0.9114506732355271, 0.2909103558301977;,
		-0.2909103558301977, 0.9114506732355271, -0.2909103558301977;,
		-0.6101314768991308, 0.505449465123637, -0.6101314768991308;,
		0.6101314768991308, 0.505449465123637, 0.6101314768991308;,
		0.6101314768991308, 0.505449465123637, -0.6101314768991308;,
		0.2909103558301977, 0.9114506732355271, -0.2909103558301977;,
		0.2909103558301977, 0.9114506732355271, 0.2909103558301977;,
		-0.6101314768991308, 0.505449465123637, -0.6101314768991308;,
		-0.2909103558301977, 0.9114506732355271, -0.2909103558301977;,
		0.2909103558301977, 0.9114506732355271, -0.2909103558301977;,
		0.6101314768991308, 0.505449465123637, -0.6101314768991308;,
		-0.2909103558301977, 0.9114506732355271, 0.2909103558301977;,
		0.2909103558301977, 0.9114506732355271, 0.2909103558301977;,
		0.12526857429314148, 0.9841826906571398, 0.12526857429314148;,
		-0.12526857429314148, 0.9841826906571398, 0.12526857429314148;,
		-0.2909103558301977, 0.9114506732355271, 0.2909103558301977;,
		-0.12526857429314148, 0.9841826906571398, 0.12526857429314148;,
		-0.12526857429314148, 0.9841826906571398, -0.12526857429314148;,
		-0.2909103558301977, 0.9114506732355271, -0.2909103558301977;,
		0.2909103558301977, 0.9114506732355271, 0.2909103558301977;,
		0.2909103558301977, 0.9114506732355271, -0.2909103558301977;,
		0.12526857429314148, 0.9841826906571398, -0.12526857429314148;,
		0.12526857429314148, 0.9841826906571398, 0.12526857429314148;,
		0.2909103558301977, 0.9114506732355271, -0.2909103558301977;,
		-0.2909103558301977, 0.9114506732355271, -0.2909103558301977;,
		-0.12526857429314148, 0.9841826906571398, -0.12526857429314148;,
		0.12526857429314148, 0.9841826906571398, -0.12526857429314148;,
		-0.12526857429314148, 0.9841826906571398, 0.12526857429314148;,
		0.12526857429314148, 0.9841826906571398, 0.12526857429314148;,
		0.04927928648921315, 0.9975685960605557, 0.04927928648921315;,
		-0.04927928648921315, 0.9975685960605557, 0.04927928648921315;,
		-0.12526857429314148, 0.9841826906571398, 0.12526857429314148;,
		-0.04927928648921315, 0.9975685960605557, 0.04927928648921315;,
		-0.04927928648921315, 0.9975685960605557, -0.04927928648921315;,
		-0.12526857429314148, 0.9841826906571398, -0.12526857429314148;,
		0.12526857429314148, 0.9841826906571398, 0.12526857429314148;,
		0.12526857429314148, 0.9841826906571398, -0.12526857429314148;,
		0.04927928648921315, 0.9975685960605557, -0.04927928648921315;,
		0.04927928648921315, 0.9975685960605557, 0.04927928648921315;,
		0.12526857429314148, 0.9841826906571398, -0.12526857429314148;,
		-0.12526857429314148, 0.9841826906571398, -0.12526857429314148;,
		-0.04927928648921315, 0.9975685960605557, -0.04927928648921315;,
		0.04927928648921315, 0.9975685960605557, -0.04927928648921315;,
		-0.04927928648921315, 0.9975685960605557, 0.04927928648921315;,
		0.04927928648921315, 0.9975685960605557, 0.04927928648921315;,
		0.04927928648921315, 0.9975685960605557, -0.04927928648921315;,
		-0.04927928648921315, 0.9975685960605557, -0.04927928648921315;,
		0.7071067811865475, 0.0, -0.7071067811865475;,
		0.7071067811865475, 0.0, 0.7071067811865475;,
		0.6101314768991308, -0.505449465123637, 0.6101314768991308;,
		0.6101314768991308, -0.505449465123637, -0.6101314768991308;,
		0.7071067811865475, 0.0, -0.7071067811865475;,
		0.6101314768991308, -0.505449465123637, -0.6101314768991308;,
		-0.6101314768991308, -0.505449465123637, -0.6101314768991308;,
		-0.7071067811865475, 0.0, -0.7071067811865475;,
		-0.7071067811865475, 0.0, -0.7071067811865475;,
		-0.6101314768991308, -0.505449465123637, -0.6101314768991308;,
		-0.6101314768991308, -0.505449465123637, 0.6101314768991308;,
		-0.7071067811865475, 0.0, 0.7071067811865475;,
		0.7071067811865475, 0.0, 0.7071067811865475;,
		-0.7071067811865475, 0.0, 0.7071067811865475;,
		-0.6101314768991308, -0.505449465123637, 0.6101314768991308;,
		0.6101314768991308, -0.505449465123637, 0.6101314768991308;,
		0.6101314768991308, -0.505449465123637, -0.6101314768991308;,
		0.6101314768991308, -0.505449465123637, 0.6101314768991308;,
		0.2909103558301977, -0.9114506732355271, 0.2909103558301977;,
		0.2909103558301977, -0.9114506732355271, -0.2909103558301977;,
		0.6101314768991308, -0.505449465123637, -0.6101314768991308;,
		0.2909103558301977, -0.9114506732355271, -0.2909103558301977;,
		-0.2909103558301977, -0.9114506732355271, -0.2909103558301977;,
		-0.6101314768991308, -0.505449465123637, -0.6101314768991308;,
		-0.6101314768991308, -0.505449465123637, -0.6101314768991308;,
		-0.2909103558301977, -0.9114506732355271, -0.2909103558301977;,
		-0.2909103558301977, -0.9114506732355271, 0.2909103558301977;,
		-0.6101314768991308, -0.505449465123637, 0.6101314768991308;,
		0.6101314768991308, -0.505449465123637, 0.6101314768991308;,
		-0.6101314768991308, -0.505449465123637, 0.6101314768991308;,
		-0.2909103558301977, -0.9114506732355271, 0.2909103558301977;,
		0.2909103558301977, -0.9114506732355271, 0.2909103558301977;,
		0.2909103558301977, -0.9114506732355271, -0.2909103558301977;,
		0.2909103558301977, -0.9114506732355271, 0.2909103558301977;,
		0.12526857429314148, -0.9841826906571398, 0.12526857429314148;,
		0.12526857429314148, -0.9841826906571398, -0.12526857429314148;,
		0.2909103558301977, -0.9114506732355271, -0.2909103558301977;,
		0.12526857429314148, -0.9841826906571398, -0.12526857429314148;,
		-0.12526857429314148, -0.9841826906571398, -0.12526857429314148;,
		-0.2909103558301977, -0.9114506732355271, -0.2909103558301977;,
		-0.2909103558301977, -0.9114506732355271, -0.2909103558301977;,
		-0.12526857429314148, -0.9841826906571398, -0.12526857429314148;,
		-0.12526857429314148, -0.9841826906571398, 0.12526857429314148;,
		-0.2909103558301977, -0.9114506732355271, 0.2909103558301977;,
		-0.2909103558301977, -0.9114506732355271, 0.2909103558301977;,
		-0.12526857429314148, -0.9841826906571398, 0.12526857429314148;,
		0.12526857429314148, -0.9841826906571398, 0.12526857429314148;,
		0.2909103558301977, -0.9114506732355271, 0.2909103558301977;,
		0.12526857429314148, -0.9841826906571398, -0.12526857429314148;,
		0.12526857429314148, -0.9841826906571398, 0.12526857429314148;,
		0.04927928648921315, -0.9975685960605557, 0.04927928648921315;,
		0.04927928648921315, -0.9975685960605557, -0.04927928648921315;,
		0.12526857429314148, -0.9841826906571398, -0.12526857429314148;,
		0.04927928648921315, -0.9975685960605557, -0.04927928648921315;,
		-0.04927928648921315, -0.9975685960605557, -0.04927928648921315;,
		-0.12526857429314148, -0.9841826906571398, -0.12526857429314148;,
		-0.12526857429314148, -0.9841826906571398, -0.12526857429314148;,
		-0.04927928648921315, -0.9975685960605557, -0.04927928648921315;,
		-0.04927928648921315, -0.9975685960605557, 0.04927928648921315;,
		-0.12526857429314148, -0.9841826906571398, 0.12526857429314148;,
		-0.12526857429314148, -0.9841826906571398, 0.12526857429314148;,
		-0.04927928648921315, -0.9975685960605557, 0.04927928648921315;,
		0.04927928648921315, -0.9975685960605557, 0.04927928648921315;,
		0.12526857429314148, -0.9841826906571398, 0.12526857429314148;,
		0.04927928648921315, -0.9975685960605557, -0.04927928648921315;,
		0.04927928648921315, -0.9975685960605557, 0.04927928648921315;,
		-0.04927928648921315, -0.9975685960605557, 0.04927928648921315;,
		-0.04927928648921315, -0.9975685960605557, -0.04927928648921315;;
		38;
		4;0, 1, 2, 3 ;,
		4;4, 5, 6, 7 ;,
		4;8, 9, 10, 11 ;,
		4;12, 13, 14, 15 ;,
		4;16, 17, 18, 19 ;,
		4;20, 21, 22, 23 ;,
		4;24, 25, 26, 27 ;,
		4;28, 29, 30, 31 ;,
		4;32, 33, 34, 35 ;,
		4;36, 37, 38, 39 ;,
		4;40, 41, 42, 43 ;,
		4;44, 45, 46, 47 ;,
		4;48, 49, 50, 51 ;,
		4;52, 53, 54, 55 ;,
		4;56, 57, 58, 59 ;,
		4;60, 61, 62, 63 ;,
		4;64, 65, 66, 67 ;,
		4;68, 69, 70, 71 ;,
		4;72, 73, 74, 75 ;,
		4;76, 77, 78, 79 ;,
		4;80, 81, 82, 83 ;,
		4;84, 85, 86, 87 ;,
		4;88, 89, 90, 91 ;,
		4;92, 93, 94, 95 ;,
		4;96, 97, 98, 99 ;,
		4;100, 101, 102, 103 ;,
		4;104, 105, 106, 107 ;,
		4;108, 109, 110, 111 ;,
		4;112, 113, 114, 115 ;,
		4;116, 117, 118, 119 ;,
		4;120, 121, 122, 123 ;,
		4;124, 125, 126, 127 ;,
		4;128, 129, 130, 131 ;,
		4;132, 133, 134, 135 ;,
		4;136, 137, 138, 139 ;,
		4;140, 141, 142, 143 ;,
		4;144, 145, 146, 147 ;,
		4;148, 149, 150, 151 ;;
		}
		MeshMaterialList {
			1;
			38;
			0;
			0;
			0;
			0;
			0;
			0;
			0;
			0;
			0;
			0;
			0;
			0;
			0;
			0;
			0;
			0;
			0;
			0;
			0;
			0;
			0;
			0;
			0;
			0;
			0;
			0;
			0;
			0;
			0;
			0;
			0;
			0;
			0;
			0;
			0;
			0;
			0;
			0;
			;
			{default}
		}
	}}Frame cube1 {
	Mesh {
		40;
		-0.792, 0.002606428159999785, 0.742;,
		0.792, 0.002606428159999785, 0.742;,
		0.792, 0.6270424883200074, 0.742;,
		-0.792, 0.6270424883200074, 0.742;,
		-0.792, 0.002606428159999785, 0.742;,
		-0.792, 0.002606428159999785, -0.742;,
		0.792, 0.002606428159999785, -0.742;,
		0.792, 0.002606428159999785, 0.742;,
		-0.792, 0.002606428159999785, 0.742;,
		-0.792, 0.6270424883200074, 0.742;,
		-0.792, 0.6270424883200074, -0.742;,
		-0.792, 0.002606428159999785, -0.742;,
		0.792, 0.002606428159999785, 0.742;,
		0.792, 0.002606428159999785, -0.742;,
		0.792, 0.6270424883200074, -0.742;,
		0.792, 0.6270424883200074, 0.742;,
		-0.792, 0.002606428159999785, -0.742;,
		-0.792, 0.6270424883200074, -0.742;,
		0.792, 0.6270424883200074, -0.742;,
		0.792, 0.002606428159999785, -0.742;,
		-0.792, 0.6270424883200074, 0.742;,
		0.792, 0.6270424883200074, 0.742;,
		0.7270721740800072, 0.07289104384000034, 0.6770721740800072;,
		-0.7270721740800072, 0.07289104384000034, 0.6770721740800072;,
		-0.792, 0.6270424883200074, 0.742;,
		-0.7270721740800072, 0.07289104384000034, 0.6770721740800072;,
		-0.7270721740800072, 0.07289104384000034, -0.6770721740800072;,
		-0.792, 0.6270424883200074, -0.742;,
		0.792, 0.6270424883200074, 0.742;,
		0.792, 0.6270424883200074, -0.742;,
		0.7270721740800072, 0.07289104384000034, -0.6770721740800072;,
		0.7270721740800072, 0.07289104384000034, 0.6770721740800072;,
		-0.792, 0.6270424883200074, -0.742;,
		-0.7270721740800072, 0.07289104384000034, -0.6770721740800072;,
		0.7270721740800072, 0.07289104384000034, -0.6770721740800072;,
		0.792, 0.6270424883200074, -0.742;,
		-0.7270721740800072, 0.07289104384000034, 0.6770721740800072;,
		0.7270721740800072, 0.07289104384000034, 0.6770721740800072;,
		0.7270721740800072, 0.07289104384000034, -0.6770721740800072;,
		-0.7270721740800072, 0.07289104384000034, -0.6770721740800072;;

		10;
		4;0, 1, 2, 3 ;,
		4;4, 5, 6, 7 ;,
		4;8, 9, 10, 11 ;,
		4;12, 13, 14, 15 ;,
		4;16, 17, 18, 19 ;,
		4;20, 21, 22, 23 ;,
		4;24, 25, 26, 27 ;,
		4;28, 29, 30, 31 ;,
		4;32, 33, 34, 35 ;,
		4;36, 37, 38, 39 ;;

		MeshNormals {
			40;		-0.5773502691896258, -0.5773502691896258, 0.5773502691896258;,
		0.5773502691896258, -0.5773502691896258, 0.5773502691896258;,
		0.02916686512062631, 0.9991489318205121, 0.029166865120626786;,
		-0.02916686512062631, 0.9991489318205121, 0.029166865120626786;,
		-0.5773502691896258, -0.5773502691896258, 0.5773502691896258;,
		-0.5773502691896258, -0.5773502691896258, -0.5773502691896258;,
		0.5773502691896258, -0.5773502691896258, -0.5773502691896258;,
		0.5773502691896258, -0.5773502691896258, 0.5773502691896258;,
		-0.5773502691896258, -0.5773502691896258, 0.5773502691896258;,
		-0.02916686512062631, 0.9991489318205121, 0.029166865120626786;,
		-0.02916686512062631, 0.9991489318205121, -0.029166865120626786;,
		-0.5773502691896258, -0.5773502691896258, -0.5773502691896258;,
		0.5773502691896258, -0.5773502691896258, 0.5773502691896258;,
		0.5773502691896258, -0.5773502691896258, -0.5773502691896258;,
		0.02916686512062631, 0.9991489318205121, -0.029166865120626786;,
		0.02916686512062631, 0.9991489318205121, 0.029166865120626786;,
		-0.5773502691896258, -0.5773502691896258, -0.5773502691896258;,
		-0.02916686512062631, 0.9991489318205121, -0.029166865120626786;,
		0.02916686512062631, 0.9991489318205121, -0.029166865120626786;,
		0.5773502691896258, -0.5773502691896258, -0.5773502691896258;,
		-0.02916686512062631, 0.9991489318205121, 0.029166865120626786;,
		0.02916686512062631, 0.9991489318205121, 0.029166865120626786;,
		-0.5314556928197507, 0.6596284508258856, -0.5314556928197506;,
		0.5314556928197507, 0.6596284508258856, -0.5314556928197506;,
		-0.02916686512062631, 0.9991489318205121, 0.029166865120626786;,
		0.5314556928197507, 0.6596284508258856, -0.5314556928197506;,
		0.5314556928197507, 0.6596284508258856, 0.5314556928197506;,
		-0.02916686512062631, 0.9991489318205121, -0.029166865120626786;,
		0.02916686512062631, 0.9991489318205121, 0.029166865120626786;,
		0.02916686512062631, 0.9991489318205121, -0.029166865120626786;,
		-0.5314556928197507, 0.6596284508258856, 0.5314556928197506;,
		-0.5314556928197507, 0.6596284508258856, -0.5314556928197506;,
		-0.02916686512062631, 0.9991489318205121, -0.029166865120626786;,
		0.5314556928197507, 0.6596284508258856, 0.5314556928197506;,
		-0.5314556928197507, 0.6596284508258856, 0.5314556928197506;,
		0.02916686512062631, 0.9991489318205121, -0.029166865120626786;,
		0.5314556928197507, 0.6596284508258856, -0.5314556928197506;,
		-0.5314556928197507, 0.6596284508258856, -0.5314556928197506;,
		-0.5314556928197507, 0.6596284508258856, 0.5314556928197506;,
		0.5314556928197507, 0.6596284508258856, 0.5314556928197506;;
		10;
		4;0, 1, 2, 3 ;,
		4;4, 5, 6, 7 ;,
		4;8, 9, 10, 11 ;,
		4;12, 13, 14, 15 ;,
		4;16, 17, 18, 19 ;,
		4;20, 21, 22, 23 ;,
		4;24, 25, 26, 27 ;,
		4;28, 29, 30, 31 ;,
		4;32, 33, 34, 35 ;,
		4;36, 37, 38, 39 ;;
		}
		MeshMaterialList {
			1;
			10;
			0;
			0;
			0;
			0;
			0;
			0;
			0;
			0;
			0;
			0;
			;
			{default}
		}
	}}