xof 0303txt 0064
#Exported from Wings 3D 1.4.1
		Material cube1_auv {
			1.0; 1.0; 1.0; 1.0;;
		1.0;
			1.0; 1.0; 1.0;;
			0.0; 0.0; 0.0;;
			TextureFilename { "wallpaper.png"; }
		}
		Material cube2_auv {
			1.0; 1.0; 1.0; 1.0;;
		1.0;
			1.0; 1.0; 1.0;;
			0.0; 0.0; 0.0;;
			TextureFilename { "wallpaper.png"; }
		}
Frame cube2 {
	Mesh {
		152;
		-0.7944159999999999, 0.6057499997762553, 0.7944159999999999;,
		0.7944159999999999, 0.6057499997762553, 0.7944159999999999;,
		0.7944159999999999, 1.1809544965561836, 0.7944159999999999;,
		-0.7944159999999999, 1.1809544965561836, 0.7944159999999999;,
		-0.7944159999999999, 0.6057499997762553, 0.7944159999999999;,
		-0.7944159999999999, 0.6057499997762553, -0.7944159999999999;,
		-0.7944159999999999, 0.6057499997762553, -0.7944159999999999;,
		-0.7944159999999999, 0.6057499997762553, 0.7944159999999999;,
		-0.7944159999999999, 0.6057499997762553, 0.7944159999999999;,
		-0.7944159999999999, 1.1809544965561836, 0.7944159999999999;,
		-0.7944159999999999, 1.1809544965561836, -0.7944159999999999;,
		-0.7944159999999999, 0.6057499997762553, -0.7944159999999999;,
		-0.7944159999999999, 0.6057499997762553, 0.7944159999999999;,
		-0.7944159999999999, 0.6057499997762553, 0.7944159999999999;,
		0.7944159999999999, 0.6057499997762553, 0.7944159999999999;,
		0.7944159999999999, 0.6057499997762553, 0.7944159999999999;,
		0.7944159999999999, 0.6057499997762553, 0.7944159999999999;,
		0.7944159999999999, 0.6057499997762553, -0.7944159999999999;,
		0.7944159999999999, 1.1809544965561836, -0.7944159999999999;,
		0.7944159999999999, 1.1809544965561836, 0.7944159999999999;,
		0.7944159999999999, 0.6057499997762553, 0.7944159999999999;,
		0.7944159999999999, 0.6057499997762553, 0.7944159999999999;,
		0.7944159999999999, 0.6057499997762553, -0.7944159999999999;,
		0.7944159999999999, 0.6057499997762553, -0.7944159999999999;,
		-0.7944159999999999, 0.6057499997762553, -0.7944159999999999;,
		0.7944159999999999, 0.6057499997762553, -0.7944159999999999;,
		0.7944159999999999, 0.6057499997762553, -0.7944159999999999;,
		-0.7944159999999999, 0.6057499997762553, -0.7944159999999999;,
		-0.7944159999999999, 0.6057499997762553, -0.7944159999999999;,
		-0.7944159999999999, 1.1809544965561836, -0.7944159999999999;,
		0.7944159999999999, 1.1809544965561836, -0.7944159999999999;,
		0.7944159999999999, 0.6057499997762553, -0.7944159999999999;,
		-0.7944159999999999, 1.1809544965561836, 0.7944159999999999;,
		0.7944159999999999, 1.1809544965561836, 0.7944159999999999;,
		0.705180614151865, 1.2701898824045823, 0.705180614151865;,
		-0.705180614151865, 1.2701898824045823, 0.705180614151865;,
		-0.7944159999999999, 1.1809544965561836, 0.7944159999999999;,
		-0.705180614151865, 1.2701898824045823, 0.705180614151865;,
		-0.705180614151865, 1.2701898824045823, -0.705180614151865;,
		-0.7944159999999999, 1.1809544965561836, -0.7944159999999999;,
		0.7944159999999999, 1.1809544965561836, 0.7944159999999999;,
		0.7944159999999999, 1.1809544965561836, -0.7944159999999999;,
		0.705180614151865, 1.2701898824045823, -0.705180614151865;,
		0.705180614151865, 1.2701898824045823, 0.705180614151865;,
		-0.7944159999999999, 1.1809544965561836, -0.7944159999999999;,
		-0.705180614151865, 1.2701898824045823, -0.705180614151865;,
		0.705180614151865, 1.2701898824045823, -0.705180614151865;,
		0.7944159999999999, 1.1809544965561836, -0.7944159999999999;,
		-0.705180614151865, 1.2701898824045823, 0.705180614151865;,
		0.705180614151865, 1.2701898824045823, 0.705180614151865;,
		0.4828618394586172, 1.3515642016805016, 0.4828618394586172;,
		-0.4828618394586172, 1.3515642016805016, 0.4828618394586172;,
		-0.705180614151865, 1.2701898824045823, 0.705180614151865;,
		-0.4828618394586172, 1.3515642016805016, 0.4828618394586172;,
		-0.4828618394586172, 1.3515642016805016, -0.4828618394586172;,
		-0.705180614151865, 1.2701898824045823, -0.705180614151865;,
		0.705180614151865, 1.2701898824045823, 0.705180614151865;,
		0.705180614151865, 1.2701898824045823, -0.705180614151865;,
		0.4828618394586172, 1.3515642016805016, -0.4828618394586172;,
		0.4828618394586172, 1.3515642016805016, 0.4828618394586172;,
		0.705180614151865, 1.2701898824045823, -0.705180614151865;,
		-0.705180614151865, 1.2701898824045823, -0.705180614151865;,
		-0.4828618394586172, 1.3515642016805016, -0.4828618394586172;,
		0.4828618394586172, 1.3515642016805016, -0.4828618394586172;,
		-0.4828618394586172, 1.3515642016805016, 0.4828618394586172;,
		0.4828618394586172, 1.3515642016805016, 0.4828618394586172;,
		0.10745260141051985, 1.4074031940840526, 0.10745260141051985;,
		-0.10745260141051985, 1.4074031940840526, 0.10745260141051985;,
		-0.4828618394586172, 1.3515642016805016, 0.4828618394586172;,
		-0.10745260141051985, 1.4074031940840526, 0.10745260141051985;,
		-0.10745260141051985, 1.4074031940840526, -0.10745260141051985;,
		-0.4828618394586172, 1.3515642016805016, -0.4828618394586172;,
		0.4828618394586172, 1.3515642016805016, 0.4828618394586172;,
		0.4828618394586172, 1.3515642016805016, -0.4828618394586172;,
		0.10745260141051985, 1.4074031940840526, -0.10745260141051985;,
		0.10745260141051985, 1.4074031940840526, 0.10745260141051985;,
		0.4828618394586172, 1.3515642016805016, -0.4828618394586172;,
		-0.4828618394586172, 1.3515642016805016, -0.4828618394586172;,
		-0.10745260141051985, 1.4074031940840526, -0.10745260141051985;,
		0.10745260141051985, 1.4074031940840526, -0.10745260141051985;,
		-0.10745260141051985, 1.4074031940840526, 0.10745260141051985;,
		0.10745260141051985, 1.4074031940840526, 0.10745260141051985;,
		0.10745260141051985, 1.4074031940840526, -0.10745260141051985;,
		-0.10745260141051985, 1.4074031940840526, -0.10745260141051985;,
		-0.7944159999999999, 0.6057499997762553, 0.7944159999999999;,
		-0.7944159999999999, 0.6057499997762553, -0.7944159999999999;,
		-0.7944159999999999, 1.1809544965561836, -0.7944159999999999;,
		-0.7944159999999999, 1.1809544965561836, 0.7944159999999999;,
		-0.7944159999999999, 0.6057499997762553, 0.7944159999999999;,
		-0.7944159999999999, 1.1809544965561836, 0.7944159999999999;,
		0.7944159999999999, 1.1809544965561836, 0.7944159999999999;,
		0.7944159999999999, 0.6057499997762553, 0.7944159999999999;,
		0.7944159999999999, 0.6057499997762553, 0.7944159999999999;,
		0.7944159999999999, 1.1809544965561836, 0.7944159999999999;,
		0.7944159999999999, 1.1809544965561836, -0.7944159999999999;,
		0.7944159999999999, 0.6057499997762553, -0.7944159999999999;,
		-0.7944159999999999, 0.6057499997762553, -0.7944159999999999;,
		0.7944159999999999, 0.6057499997762553, -0.7944159999999999;,
		0.7944159999999999, 1.1809544965561836, -0.7944159999999999;,
		-0.7944159999999999, 1.1809544965561836, -0.7944159999999999;,
		-0.7944159999999999, 1.1809544965561836, 0.7944159999999999;,
		-0.7944159999999999, 1.1809544965561836, -0.7944159999999999;,
		-0.705180614151865, 1.2701898824045823, -0.705180614151865;,
		-0.705180614151865, 1.2701898824045823, 0.705180614151865;,
		-0.7944159999999999, 1.1809544965561836, 0.7944159999999999;,
		-0.705180614151865, 1.2701898824045823, 0.705180614151865;,
		0.705180614151865, 1.2701898824045823, 0.705180614151865;,
		0.7944159999999999, 1.1809544965561836, 0.7944159999999999;,
		0.7944159999999999, 1.1809544965561836, 0.7944159999999999;,
		0.705180614151865, 1.2701898824045823, 0.705180614151865;,
		0.705180614151865, 1.2701898824045823, -0.705180614151865;,
		0.7944159999999999, 1.1809544965561836, -0.7944159999999999;,
		-0.7944159999999999, 1.1809544965561836, -0.7944159999999999;,
		0.7944159999999999, 1.1809544965561836, -0.7944159999999999;,
		0.705180614151865, 1.2701898824045823, -0.705180614151865;,
		-0.705180614151865, 1.2701898824045823, -0.705180614151865;,
		-0.705180614151865, 1.2701898824045823, 0.705180614151865;,
		-0.705180614151865, 1.2701898824045823, -0.705180614151865;,
		-0.4828618394586172, 1.3515642016805016, -0.4828618394586172;,
		-0.4828618394586172, 1.3515642016805016, 0.4828618394586172;,
		-0.705180614151865, 1.2701898824045823, 0.705180614151865;,
		-0.4828618394586172, 1.3515642016805016, 0.4828618394586172;,
		0.4828618394586172, 1.3515642016805016, 0.4828618394586172;,
		0.705180614151865, 1.2701898824045823, 0.705180614151865;,
		0.705180614151865, 1.2701898824045823, 0.705180614151865;,
		0.4828618394586172, 1.3515642016805016, 0.4828618394586172;,
		0.4828618394586172, 1.3515642016805016, -0.4828618394586172;,
		0.705180614151865, 1.2701898824045823, -0.705180614151865;,
		0.705180614151865, 1.2701898824045823, -0.705180614151865;,
		0.4828618394586172, 1.3515642016805016, -0.4828618394586172;,
		-0.4828618394586172, 1.3515642016805016, -0.4828618394586172;,
		-0.705180614151865, 1.2701898824045823, -0.705180614151865;,
		-0.4828618394586172, 1.3515642016805016, 0.4828618394586172;,
		-0.4828618394586172, 1.3515642016805016, -0.4828618394586172;,
		-0.10745260141051985, 1.4074031940840526, -0.10745260141051985;,
		-0.10745260141051985, 1.4074031940840526, 0.10745260141051985;,
		-0.4828618394586172, 1.3515642016805016, 0.4828618394586172;,
		-0.10745260141051985, 1.4074031940840526, 0.10745260141051985;,
		0.10745260141051985, 1.4074031940840526, 0.10745260141051985;,
		0.4828618394586172, 1.3515642016805016, 0.4828618394586172;,
		0.4828618394586172, 1.3515642016805016, 0.4828618394586172;,
		0.10745260141051985, 1.4074031940840526, 0.10745260141051985;,
		0.10745260141051985, 1.4074031940840526, -0.10745260141051985;,
		0.4828618394586172, 1.3515642016805016, -0.4828618394586172;,
		0.4828618394586172, 1.3515642016805016, -0.4828618394586172;,
		0.10745260141051985, 1.4074031940840526, -0.10745260141051985;,
		-0.10745260141051985, 1.4074031940840526, -0.10745260141051985;,
		-0.4828618394586172, 1.3515642016805016, -0.4828618394586172;,
		-0.10745260141051985, 1.4074031940840526, 0.10745260141051985;,
		-0.10745260141051985, 1.4074031940840526, -0.10745260141051985;,
		0.10745260141051985, 1.4074031940840526, -0.10745260141051985;,
		0.10745260141051985, 1.4074031940840526, 0.10745260141051985;;

		38;
		4;0, 1, 2, 3 ;,
		4;4, 5, 6, 7 ;,
		4;8, 9, 10, 11 ;,
		4;12, 13, 14, 15 ;,
		4;16, 17, 18, 19 ;,
		4;20, 21, 22, 23 ;,
		4;24, 25, 26, 27 ;,
		4;28, 29, 30, 31 ;,
		4;32, 33, 34, 35 ;,
		4;36, 37, 38, 39 ;,
		4;40, 41, 42, 43 ;,
		4;44, 45, 46, 47 ;,
		4;48, 49, 50, 51 ;,
		4;52, 53, 54, 55 ;,
		4;56, 57, 58, 59 ;,
		4;60, 61, 62, 63 ;,
		4;64, 65, 66, 67 ;,
		4;68, 69, 70, 71 ;,
		4;72, 73, 74, 75 ;,
		4;76, 77, 78, 79 ;,
		4;80, 81, 82, 83 ;,
		4;84, 85, 86, 87 ;,
		4;88, 89, 90, 91 ;,
		4;92, 93, 94, 95 ;,
		4;96, 97, 98, 99 ;,
		4;100, 101, 102, 103 ;,
		4;104, 105, 106, 107 ;,
		4;108, 109, 110, 111 ;,
		4;112, 113, 114, 115 ;,
		4;116, 117, 118, 119 ;,
		4;120, 121, 122, 123 ;,
		4;124, 125, 126, 127 ;,
		4;128, 129, 130, 131 ;,
		4;132, 133, 134, 135 ;,
		4;136, 137, 138, 139 ;,
		4;140, 141, 142, 143 ;,
		4;144, 145, 146, 147 ;,
		4;148, 149, 150, 151 ;;

		MeshNormals {
			152;		-0.7071067811865475, 0.0, 0.7071067811865475;,
		0.7071067811865475, 0.0, 0.7071067811865475;,
		0.6101314768991308, 0.505449465123637, 0.6101314768991308;,
		-0.6101314768991308, 0.505449465123637, 0.6101314768991308;,
		-0.7071067811865475, 0.0, 0.7071067811865475;,
		-0.7071067811865475, 0.0, -0.7071067811865475;,
		0.7071067811865475, 0.0, 0.7071067811865475;,
		0.7071067811865475, 0.0, -0.7071067811865475;,
		-0.7071067811865475, 0.0, 0.7071067811865475;,
		-0.6101314768991308, 0.505449465123637, 0.6101314768991308;,
		-0.6101314768991308, 0.505449465123637, -0.6101314768991308;,
		-0.7071067811865475, 0.0, -0.7071067811865475;,
		-0.7071067811865475, 0.0, 0.7071067811865475;,
		0.7071067811865475, 0.0, -0.7071067811865475;,
		-0.7071067811865475, 0.0, -0.7071067811865475;,
		0.7071067811865475, 0.0, 0.7071067811865475;,
		0.7071067811865475, 0.0, 0.7071067811865475;,
		0.7071067811865475, 0.0, -0.7071067811865475;,
		0.6101314768991308, 0.505449465123637, -0.6101314768991308;,
		0.6101314768991308, 0.505449465123637, 0.6101314768991308;,
		0.7071067811865475, 0.0, 0.7071067811865475;,
		-0.7071067811865475, 0.0, -0.7071067811865475;,
		-0.7071067811865475, 0.0, 0.7071067811865475;,
		0.7071067811865475, 0.0, -0.7071067811865475;,
		-0.7071067811865475, 0.0, -0.7071067811865475;,
		0.7071067811865475, 0.0, -0.7071067811865475;,
		-0.7071067811865475, 0.0, 0.7071067811865475;,
		0.7071067811865475, 0.0, 0.7071067811865475;,
		-0.7071067811865475, 0.0, -0.7071067811865475;,
		-0.6101314768991308, 0.505449465123637, -0.6101314768991308;,
		0.6101314768991308, 0.505449465123637, -0.6101314768991308;,
		0.7071067811865475, 0.0, -0.7071067811865475;,
		-0.6101314768991308, 0.505449465123637, 0.6101314768991308;,
		0.6101314768991308, 0.505449465123637, 0.6101314768991308;,
		0.2909103558301977, 0.9114506732355271, 0.2909103558301977;,
		-0.2909103558301977, 0.9114506732355271, 0.2909103558301977;,
		-0.6101314768991308, 0.505449465123637, 0.6101314768991308;,
		-0.2909103558301977, 0.9114506732355271, 0.2909103558301977;,
		-0.2909103558301977, 0.9114506732355271, -0.2909103558301977;,
		-0.6101314768991308, 0.505449465123637, -0.6101314768991308;,
		0.6101314768991308, 0.505449465123637, 0.6101314768991308;,
		0.6101314768991308, 0.505449465123637, -0.6101314768991308;,
		0.2909103558301977, 0.9114506732355271, -0.2909103558301977;,
		0.2909103558301977, 0.9114506732355271, 0.2909103558301977;,
		-0.6101314768991308, 0.505449465123637, -0.6101314768991308;,
		-0.2909103558301977, 0.9114506732355271, -0.2909103558301977;,
		0.2909103558301977, 0.9114506732355271, -0.2909103558301977;,
		0.6101314768991308, 0.505449465123637, -0.6101314768991308;,
		-0.2909103558301977, 0.9114506732355271, 0.2909103558301977;,
		0.2909103558301977, 0.9114506732355271, 0.2909103558301977;,
		0.12526857429314148, 0.9841826906571398, 0.12526857429314148;,
		-0.12526857429314148, 0.9841826906571398, 0.12526857429314148;,
		-0.2909103558301977, 0.9114506732355271, 0.2909103558301977;,
		-0.12526857429314148, 0.9841826906571398, 0.12526857429314148;,
		-0.12526857429314148, 0.9841826906571398, -0.12526857429314148;,
		-0.2909103558301977, 0.9114506732355271, -0.2909103558301977;,
		0.2909103558301977, 0.9114506732355271, 0.2909103558301977;,
		0.2909103558301977, 0.9114506732355271, -0.2909103558301977;,
		0.12526857429314148, 0.9841826906571398, -0.12526857429314148;,
		0.12526857429314148, 0.9841826906571398, 0.12526857429314148;,
		0.2909103558301977, 0.9114506732355271, -0.2909103558301977;,
		-0.2909103558301977, 0.9114506732355271, -0.2909103558301977;,
		-0.12526857429314148, 0.9841826906571398, -0.12526857429314148;,
		0.12526857429314148, 0.9841826906571398, -0.12526857429314148;,
		-0.12526857429314148, 0.9841826906571398, 0.12526857429314148;,
		0.12526857429314148, 0.9841826906571398, 0.12526857429314148;,
		0.04927928648921315, 0.9975685960605557, 0.04927928648921315;,
		-0.04927928648921315, 0.9975685960605557, 0.04927928648921315;,
		-0.12526857429314148, 0.9841826906571398, 0.12526857429314148;,
		-0.04927928648921315, 0.9975685960605557, 0.04927928648921315;,
		-0.04927928648921315, 0.9975685960605557, -0.04927928648921315;,
		-0.12526857429314148, 0.9841826906571398, -0.12526857429314148;,
		0.12526857429314148, 0.9841826906571398, 0.12526857429314148;,
		0.12526857429314148, 0.9841826906571398, -0.12526857429314148;,
		0.04927928648921315, 0.9975685960605557, -0.04927928648921315;,
		0.04927928648921315, 0.9975685960605557, 0.04927928648921315;,
		0.12526857429314148, 0.9841826906571398, -0.12526857429314148;,
		-0.12526857429314148, 0.9841826906571398, -0.12526857429314148;,
		-0.04927928648921315, 0.9975685960605557, -0.04927928648921315;,
		0.04927928648921315, 0.9975685960605557, -0.04927928648921315;,
		-0.04927928648921315, 0.9975685960605557, 0.04927928648921315;,
		0.04927928648921315, 0.9975685960605557, 0.04927928648921315;,
		0.04927928648921315, 0.9975685960605557, -0.04927928648921315;,
		-0.04927928648921315, 0.9975685960605557, -0.04927928648921315;,
		0.7071067811865475, 0.0, -0.7071067811865475;,
		0.7071067811865475, 0.0, 0.7071067811865475;,
		0.6101314768991308, -0.505449465123637, 0.6101314768991308;,
		0.6101314768991308, -0.505449465123637, -0.6101314768991308;,
		0.7071067811865475, 0.0, -0.7071067811865475;,
		0.6101314768991308, -0.505449465123637, -0.6101314768991308;,
		-0.6101314768991308, -0.505449465123637, -0.6101314768991308;,
		-0.7071067811865475, 0.0, -0.7071067811865475;,
		-0.7071067811865475, 0.0, -0.7071067811865475;,
		-0.6101314768991308, -0.505449465123637, -0.6101314768991308;,
		-0.6101314768991308, -0.505449465123637, 0.6101314768991308;,
		-0.7071067811865475, 0.0, 0.7071067811865475;,
		0.7071067811865475, 0.0, 0.7071067811865475;,
		-0.7071067811865475, 0.0, 0.7071067811865475;,
		-0.6101314768991308, -0.505449465123637, 0.6101314768991308;,
		0.6101314768991308, -0.505449465123637, 0.6101314768991308;,
		0.6101314768991308, -0.505449465123637, -0.6101314768991308;,
		0.6101314768991308, -0.505449465123637, 0.6101314768991308;,
		0.2909103558301977, -0.9114506732355271, 0.2909103558301977;,
		0.2909103558301977, -0.9114506732355271, -0.2909103558301977;,
		0.6101314768991308, -0.505449465123637, -0.6101314768991308;,
		0.2909103558301977, -0.9114506732355271, -0.2909103558301977;,
		-0.2909103558301977, -0.9114506732355271, -0.2909103558301977;,
		-0.6101314768991308, -0.505449465123637, -0.6101314768991308;,
		-0.6101314768991308, -0.505449465123637, -0.6101314768991308;,
		-0.2909103558301977, -0.9114506732355271, -0.2909103558301977;,
		-0.2909103558301977, -0.9114506732355271, 0.2909103558301977;,
		-0.6101314768991308, -0.505449465123637, 0.6101314768991308;,
		0.6101314768991308, -0.505449465123637, 0.6101314768991308;,
		-0.6101314768991308, -0.505449465123637, 0.6101314768991308;,
		-0.2909103558301977, -0.9114506732355271, 0.2909103558301977;,
		0.2909103558301977, -0.9114506732355271, 0.2909103558301977;,
		0.2909103558301977, -0.9114506732355271, -0.2909103558301977;,
		0.2909103558301977, -0.9114506732355271, 0.2909103558301977;,
		0.12526857429314148, -0.9841826906571398, 0.12526857429314148;,
		0.12526857429314148, -0.9841826906571398, -0.12526857429314148;,
		0.2909103558301977, -0.9114506732355271, -0.2909103558301977;,
		0.12526857429314148, -0.9841826906571398, -0.12526857429314148;,
		-0.12526857429314148, -0.9841826906571398, -0.12526857429314148;,
		-0.2909103558301977, -0.9114506732355271, -0.2909103558301977;,
		-0.2909103558301977, -0.9114506732355271, -0.2909103558301977;,
		-0.12526857429314148, -0.9841826906571398, -0.12526857429314148;,
		-0.12526857429314148, -0.9841826906571398, 0.12526857429314148;,
		-0.2909103558301977, -0.9114506732355271, 0.2909103558301977;,
		-0.2909103558301977, -0.9114506732355271, 0.2909103558301977;,
		-0.12526857429314148, -0.9841826906571398, 0.12526857429314148;,
		0.12526857429314148, -0.9841826906571398, 0.12526857429314148;,
		0.2909103558301977, -0.9114506732355271, 0.2909103558301977;,
		0.12526857429314148, -0.9841826906571398, -0.12526857429314148;,
		0.12526857429314148, -0.9841826906571398, 0.12526857429314148;,
		0.04927928648921315, -0.9975685960605557, 0.04927928648921315;,
		0.04927928648921315, -0.9975685960605557, -0.04927928648921315;,
		0.12526857429314148, -0.9841826906571398, -0.12526857429314148;,
		0.04927928648921315, -0.9975685960605557, -0.04927928648921315;,
		-0.04927928648921315, -0.9975685960605557, -0.04927928648921315;,
		-0.12526857429314148, -0.9841826906571398, -0.12526857429314148;,
		-0.12526857429314148, -0.9841826906571398, -0.12526857429314148;,
		-0.04927928648921315, -0.9975685960605557, -0.04927928648921315;,
		-0.04927928648921315, -0.9975685960605557, 0.04927928648921315;,
		-0.12526857429314148, -0.9841826906571398, 0.12526857429314148;,
		-0.12526857429314148, -0.9841826906571398, 0.12526857429314148;,
		-0.04927928648921315, -0.9975685960605557, 0.04927928648921315;,
		0.04927928648921315, -0.9975685960605557, 0.04927928648921315;,
		0.12526857429314148, -0.9841826906571398, 0.12526857429314148;,
		0.04927928648921315, -0.9975685960605557, -0.04927928648921315;,
		0.04927928648921315, -0.9975685960605557, 0.04927928648921315;,
		-0.04927928648921315, -0.9975685960605557, 0.04927928648921315;,
		-0.04927928648921315, -0.9975685960605557, -0.04927928648921315;;
		38;
		4;0, 1, 2, 3 ;,
		4;4, 5, 6, 7 ;,
		4;8, 9, 10, 11 ;,
		4;12, 13, 14, 15 ;,
		4;16, 17, 18, 19 ;,
		4;20, 21, 22, 23 ;,
		4;24, 25, 26, 27 ;,
		4;28, 29, 30, 31 ;,
		4;32, 33, 34, 35 ;,
		4;36, 37, 38, 39 ;,
		4;40, 41, 42, 43 ;,
		4;44, 45, 46, 47 ;,
		4;48, 49, 50, 51 ;,
		4;52, 53, 54, 55 ;,
		4;56, 57, 58, 59 ;,
		4;60, 61, 62, 63 ;,
		4;64, 65, 66, 67 ;,
		4;68, 69, 70, 71 ;,
		4;72, 73, 74, 75 ;,
		4;76, 77, 78, 79 ;,
		4;80, 81, 82, 83 ;,
		4;84, 85, 86, 87 ;,
		4;88, 89, 90, 91 ;,
		4;92, 93, 94, 95 ;,
		4;96, 97, 98, 99 ;,
		4;100, 101, 102, 103 ;,
		4;104, 105, 106, 107 ;,
		4;108, 109, 110, 111 ;,
		4;112, 113, 114, 115 ;,
		4;116, 117, 118, 119 ;,
		4;120, 121, 122, 123 ;,
		4;124, 125, 126, 127 ;,
		4;128, 129, 130, 131 ;,
		4;132, 133, 134, 135 ;,
		4;136, 137, 138, 139 ;,
		4;140, 141, 142, 143 ;,
		4;144, 145, 146, 147 ;,
		4;148, 149, 150, 151 ;;
		}
		MeshTextureCoords {
		152;
		0.0, 0.6723346254080946;,
		0.3882845927148916, 0.6723346254080946;,
		0.3882845927148916, 0.5328967605344513;,
		0.0, 0.5328967605344513;,
		0.3882845927148915, 1.0;,
		0.7765691854297831, 1.0;,
		0.7765691854297831, 1.0;,
		0.3882845927148915, 1.0;,
		0.3882845927148916, 1.0;,
		0.3882845927148916, 0.8605621351263566;,
		0.0, 0.8605621351263566;,
		0.0, 0.9999999999999999;,
		0.3882845927148915, 1.0;,
		0.3882845927148915, 1.0;,
		0.3882845927148915, 1.0;,
		0.3882845927148915, 1.0;,
		0.3882845927148915, 1.0;,
		0.7765691854297831, 1.0;,
		0.7765691854297831, 0.8594294149664856;,
		0.3882845927148915, 0.8594294149664856;,
		0.3882845927148915, 1.0;,
		0.3882845927148915, 1.0;,
		0.7765691854297831, 1.0;,
		0.7765691854297831, 1.0;,
		0.7765691854297831, 1.0;,
		0.7765691854297831, 1.0;,
		0.7765691854297831, 1.0;,
		0.7765691854297831, 1.0;,
		0.776569185429783, 0.8376217440170701;,
		0.776569185429783, 0.6981838791434268;,
		0.3882845927148916, 0.6981838791434269;,
		0.3882845927148916, 0.8376217440170702;,
		0.0, 0.5328967605344513;,
		0.3882845927148916, 0.5328967605344513;,
		0.3664769217655406, 0.5085019381121421;,
		0.021807670949351016, 0.5085019381121421;,
		0.3882845927148916, 0.8605621351263566;,
		0.3664769217655406, 0.8361673127040474;,
		0.021807670949351043, 0.8361673127040472;,
		0.0, 0.8605621351263566;,
		0.3882845927148915, 0.8594294149664856;,
		0.7765691854297831, 0.8594294149664856;,
		0.754761514480432, 0.8376217440170701;,
		0.41009226366424256, 0.8376217440170701;,
		0.776569185429783, 0.6981838791434268;,
		0.754761514480432, 0.6737890567211176;,
		0.41009226366424256, 0.6737890567211177;,
		0.3882845927148916, 0.6981838791434269;,
		0.3446692508161896, 0.3446692508161895;,
		0.6893385016323791, 0.3446692508161895;,
		0.6350074239069547, 0.29033817309076515;,
		0.39900032854161394, 0.29033817309076515;,
		0.3446692508161896, 0.3446692508161895;,
		0.39900032854161394, 0.29033817309076515;,
		0.39900032854161394, 0.05433107772542434;,
		0.3446692508161896, 0.0;,
		0.6893385016323791, 0.3446692508161895;,
		0.6893385016323791, 0.0;,
		0.6350074239069547, 0.05433107772542434;,
		0.6350074239069547, 0.29033817309076515;,
		0.6893385016323791, 0.0;,
		0.3446692508161896, 0.0;,
		0.39900032854161394, 0.05433107772542434;,
		0.6350074239069547, 0.05433107772542434;,
		0.39900032854161394, 0.29033817309076515;,
		0.6350074239069547, 0.29033817309076515;,
		0.5432635371417629, 0.1985942863255733;,
		0.4907442153068058, 0.1985942863255733;,
		0.39900032854161394, 0.29033817309076515;,
		0.4907442153068058, 0.1985942863255733;,
		0.4907442153068058, 0.1460749644906162;,
		0.39900032854161394, 0.05433107772542434;,
		0.6350074239069547, 0.29033817309076515;,
		0.6350074239069547, 0.05433107772542434;,
		0.5432635371417629, 0.1460749644906162;,
		0.5432635371417629, 0.1985942863255733;,
		0.6350074239069547, 0.05433107772542434;,
		0.39900032854161394, 0.05433107772542434;,
		0.4907442153068058, 0.1460749644906162;,
		0.5432635371417629, 0.1460749644906162;,
		0.4907442153068058, 0.1985942863255733;,
		0.5432635371417629, 0.1985942863255733;,
		0.5432635371417629, 0.1460749644906162;,
		0.4907442153068058, 0.1460749644906162;,
		0.3882845927148915, 1.0;,
		0.7765691854297831, 1.0;,
		0.7765691854297831, 0.8594294149664856;,
		0.3882845927148915, 0.8594294149664856;,
		0.776569185429783, 0.6737890567211174;,
		0.776569185429783, 0.5343511918474741;,
		0.3882845927148916, 0.5343511918474743;,
		0.3882845927148916, 0.6737890567211176;,
		0.3882845927148916, 0.8361673127040472;,
		0.3882845927148916, 0.6967294478304039;,
		0.0, 0.696729447830404;,
		2.7755575615628914e-17, 0.8361673127040473;,
		0.0, 0.5085019381121421;,
		0.3882845927148916, 0.5085019381121421;,
		0.3882845927148916, 0.36906407323849877;,
		0.0, 0.36906407323849877;,
		0.3882845927148915, 0.8594294149664856;,
		0.7765691854297831, 0.8594294149664856;,
		0.754761514480432, 0.8376217440170701;,
		0.41009226366424256, 0.8376217440170701;,
		0.776569185429783, 0.5343511918474741;,
		0.754761514480432, 0.5099563694251649;,
		0.41009226366424256, 0.509956369425165;,
		0.3882845927148916, 0.5343511918474743;,
		0.3882845927148916, 0.6967294478304039;,
		0.36647692176554053, 0.6723346254080946;,
		0.021807670949351016, 0.6723346254080946;,
		0.0, 0.696729447830404;,
		0.0, 0.36906407323849877;,
		0.3882845927148916, 0.36906407323849877;,
		0.3664769217655406, 0.3446692508161895;,
		0.021807670949351016, 0.3446692508161895;,
		0.3446692508161896, 0.3446692508161895;,
		0.34466925081618954, 0.0;,
		0.29033817309076515, 0.05433107772542434;,
		0.2903381730907652, 0.29033817309076515;,
		0.3446692508161896, 0.3446692508161895;,
		0.2903381730907652, 0.29033817309076515;,
		0.05433107772542442, 0.29033817309076515;,
		5.551115123125783e-17, 0.3446692508161895;,
		5.551115123125783e-17, 0.3446692508161895;,
		0.05433107772542442, 0.29033817309076515;,
		0.05433107772542439, 0.05433107772542434;,
		0.0, 0.0;,
		0.0, 0.0;,
		0.05433107772542439, 0.05433107772542434;,
		0.29033817309076515, 0.05433107772542434;,
		0.34466925081618954, 0.0;,
		0.2903381730907652, 0.29033817309076515;,
		0.29033817309076515, 0.05433107772542434;,
		0.19859428632557335, 0.1460749644906162;,
		0.19859428632557335, 0.1985942863255733;,
		0.2903381730907652, 0.29033817309076515;,
		0.19859428632557335, 0.1985942863255733;,
		0.14607496449061624, 0.1985942863255733;,
		0.05433107772542442, 0.29033817309076515;,
		0.05433107772542442, 0.29033817309076515;,
		0.14607496449061624, 0.1985942863255733;,
		0.14607496449061624, 0.1460749644906162;,
		0.05433107772542439, 0.05433107772542434;,
		0.05433107772542439, 0.05433107772542434;,
		0.14607496449061624, 0.1460749644906162;,
		0.19859428632557335, 0.1460749644906162;,
		0.29033817309076515, 0.05433107772542434;,
		0.19859428632557335, 0.1985942863255733;,
		0.19859428632557335, 0.1460749644906162;,
		0.14607496449061624, 0.1460749644906162;,
		0.14607496449061624, 0.1985942863255733;;
		}
		MeshMaterialList {
			2;
			38;
			1;
			1;
			1;
			1;
			1;
			1;
			1;
			1;
			1;
			1;
			1;
			1;
			1;
			1;
			1;
			1;
			1;
			1;
			1;
			1;
			1;
			1;
			1;
			1;
			1;
			1;
			1;
			1;
			1;
			1;
			1;
			1;
			1;
			1;
			1;
			1;
			1;
			1;
			;
			{cube1_auv}
			{cube2_auv}
		}
	}}Frame cube1 {
	Mesh {
		40;
		-0.792, 0.002606428159999785, 0.742;,
		0.792, 0.002606428159999785, 0.742;,
		0.792, 0.6270424883200074, 0.742;,
		-0.792, 0.6270424883200074, 0.742;,
		-0.792, 0.002606428159999785, 0.742;,
		-0.792, 0.002606428159999785, -0.742;,
		0.792, 0.002606428159999785, -0.742;,
		0.792, 0.002606428159999785, 0.742;,
		-0.792, 0.002606428159999785, 0.742;,
		-0.792, 0.6270424883200074, 0.742;,
		-0.792, 0.6270424883200074, -0.742;,
		-0.792, 0.002606428159999785, -0.742;,
		0.792, 0.002606428159999785, 0.742;,
		0.792, 0.002606428159999785, -0.742;,
		0.792, 0.6270424883200074, -0.742;,
		0.792, 0.6270424883200074, 0.742;,
		-0.792, 0.002606428159999785, -0.742;,
		-0.792, 0.6270424883200074, -0.742;,
		0.792, 0.6270424883200074, -0.742;,
		0.792, 0.002606428159999785, -0.742;,
		-0.792, 0.6270424883200074, 0.742;,
		0.792, 0.6270424883200074, 0.742;,
		0.7270721740800072, 0.07289104384000034, 0.6770721740800072;,
		-0.7270721740800072, 0.07289104384000034, 0.6770721740800072;,
		-0.792, 0.6270424883200074, 0.742;,
		-0.7270721740800072, 0.07289104384000034, 0.6770721740800072;,
		-0.7270721740800072, 0.07289104384000034, -0.6770721740800072;,
		-0.792, 0.6270424883200074, -0.742;,
		0.792, 0.6270424883200074, 0.742;,
		0.792, 0.6270424883200074, -0.742;,
		0.7270721740800072, 0.07289104384000034, -0.6770721740800072;,
		0.7270721740800072, 0.07289104384000034, 0.6770721740800072;,
		-0.792, 0.6270424883200074, -0.742;,
		-0.7270721740800072, 0.07289104384000034, -0.6770721740800072;,
		0.7270721740800072, 0.07289104384000034, -0.6770721740800072;,
		0.792, 0.6270424883200074, -0.742;,
		-0.7270721740800072, 0.07289104384000034, 0.6770721740800072;,
		0.7270721740800072, 0.07289104384000034, 0.6770721740800072;,
		0.7270721740800072, 0.07289104384000034, -0.6770721740800072;,
		-0.7270721740800072, 0.07289104384000034, -0.6770721740800072;;

		10;
		4;0, 1, 2, 3 ;,
		4;4, 5, 6, 7 ;,
		4;8, 9, 10, 11 ;,
		4;12, 13, 14, 15 ;,
		4;16, 17, 18, 19 ;,
		4;20, 21, 22, 23 ;,
		4;24, 25, 26, 27 ;,
		4;28, 29, 30, 31 ;,
		4;32, 33, 34, 35 ;,
		4;36, 37, 38, 39 ;;

		MeshNormals {
			40;		-0.5773502691896258, -0.5773502691896258, 0.5773502691896258;,
		0.5773502691896258, -0.5773502691896258, 0.5773502691896258;,
		0.02916686512062631, 0.9991489318205121, 0.029166865120626786;,
		-0.02916686512062631, 0.9991489318205121, 0.029166865120626786;,
		-0.5773502691896258, -0.5773502691896258, 0.5773502691896258;,
		-0.5773502691896258, -0.5773502691896258, -0.5773502691896258;,
		0.5773502691896258, -0.5773502691896258, -0.5773502691896258;,
		0.5773502691896258, -0.5773502691896258, 0.5773502691896258;,
		-0.5773502691896258, -0.5773502691896258, 0.5773502691896258;,
		-0.02916686512062631, 0.9991489318205121, 0.029166865120626786;,
		-0.02916686512062631, 0.9991489318205121, -0.029166865120626786;,
		-0.5773502691896258, -0.5773502691896258, -0.5773502691896258;,
		0.5773502691896258, -0.5773502691896258, 0.5773502691896258;,
		0.5773502691896258, -0.5773502691896258, -0.5773502691896258;,
		0.02916686512062631, 0.9991489318205121, -0.029166865120626786;,
		0.02916686512062631, 0.9991489318205121, 0.029166865120626786;,
		-0.5773502691896258, -0.5773502691896258, -0.5773502691896258;,
		-0.02916686512062631, 0.9991489318205121, -0.029166865120626786;,
		0.02916686512062631, 0.9991489318205121, -0.029166865120626786;,
		0.5773502691896258, -0.5773502691896258, -0.5773502691896258;,
		-0.02916686512062631, 0.9991489318205121, 0.029166865120626786;,
		0.02916686512062631, 0.9991489318205121, 0.029166865120626786;,
		-0.5314556928197507, 0.6596284508258856, -0.5314556928197506;,
		0.5314556928197507, 0.6596284508258856, -0.5314556928197506;,
		-0.02916686512062631, 0.9991489318205121, 0.029166865120626786;,
		0.5314556928197507, 0.6596284508258856, -0.5314556928197506;,
		0.5314556928197507, 0.6596284508258856, 0.5314556928197506;,
		-0.02916686512062631, 0.9991489318205121, -0.029166865120626786;,
		0.02916686512062631, 0.9991489318205121, 0.029166865120626786;,
		0.02916686512062631, 0.9991489318205121, -0.029166865120626786;,
		-0.5314556928197507, 0.6596284508258856, 0.5314556928197506;,
		-0.5314556928197507, 0.6596284508258856, -0.5314556928197506;,
		-0.02916686512062631, 0.9991489318205121, -0.029166865120626786;,
		0.5314556928197507, 0.6596284508258856, 0.5314556928197506;,
		-0.5314556928197507, 0.6596284508258856, 0.5314556928197506;,
		0.02916686512062631, 0.9991489318205121, -0.029166865120626786;,
		0.5314556928197507, 0.6596284508258856, -0.5314556928197506;,
		-0.5314556928197507, 0.6596284508258856, -0.5314556928197506;,
		-0.5314556928197507, 0.6596284508258856, 0.5314556928197506;,
		0.5314556928197507, 0.6596284508258856, 0.5314556928197506;;
		10;
		4;0, 1, 2, 3 ;,
		4;4, 5, 6, 7 ;,
		4;8, 9, 10, 11 ;,
		4;12, 13, 14, 15 ;,
		4;16, 17, 18, 19 ;,
		4;20, 21, 22, 23 ;,
		4;24, 25, 26, 27 ;,
		4;28, 29, 30, 31 ;,
		4;32, 33, 34, 35 ;,
		4;36, 37, 38, 39 ;;
		}
		MeshTextureCoords {
		40;
		0.0, 0.5438402824872108;,
		0.34269808138522534, 0.5438402824872108;,
		0.34269808138522534, 0.408743666474216;,
		0.0, 0.408743666474216;,
		0.34269808138522534, 1.0;,
		0.3426980813852254, 0.6789368985002056;,
		5.551115123125783e-17, 0.6789368985002056;,
		0.0, 1.0;,
		0.6637611828850198, 0.623482038876567;,
		0.6637611828850198, 0.4883854228635721;,
		0.3426980813852254, 0.4883854228635721;,
		0.3426980813852254, 0.623482038876567;,
		0.3426980813852254, 0.7585786548895617;,
		0.6637611828850198, 0.7585786548895617;,
		0.6637611828850198, 0.6234820388765668;,
		0.3426980813852254, 0.6234820388765668;,
		0.34269808138522534, 0.6789368985002056;,
		0.3426980813852254, 0.5438402824872108;,
		2.7755575615628914e-17, 0.5438402824872107;,
		0.0, 0.6789368985002056;,
		0.6853961627704508, 0.7585786548895617;,
		0.34269808138522545, 0.7585786548895617;,
		0.3567452034630635, 0.8792893274447808;,
		0.6713490406926127, 0.8792893274447808;,
		0.0, 0.2880329939189966;,
		0.014047122077838009, 0.4087436664742159;,
		0.30701597942195635, 0.408743666474216;,
		0.32106310149979445, 0.2880329939189967;,
		0.6421262029995889, 0.2880329939189967;,
		0.3210631014997944, 0.2880329939189967;,
		0.3351102235776324, 0.4087436664742159;,
		0.6280790809217508, 0.4087436664742159;,
		0.3426980813852254, 0.8792893274447808;,
		0.3567452034630635, 1.0;,
		0.6713490406926127, 1.0;,
		0.6853961627704508, 0.8792893274447808;,
		0.6853961627704507, 1.0;,
		0.9999999999999999, 1.0;,
		0.9999999999999999, 0.7070311426558816;,
		0.6853961627704507, 0.7070311426558816;;
		}
		MeshMaterialList {
			2;
			10;
			0;
			0;
			0;
			0;
			0;
			0;
			0;
			0;
			0;
			0;
			;
			{cube1_auv}
			{cube2_auv}
		}
	}}