xof 0303txt 0064
#Exported from Wings 3D 1.4.1
		Material cube3_auv {
			1.0; 1.0; 1.0; 1.0;;
		1.0;
			1.0; 1.0; 1.0;;
			0.0; 0.0; 0.0;;
			TextureFilename { "Dirt2.png"; }
		}
		Material cube4_auv {
			1.0; 1.0; 1.0; 1.0;;
		1.0;
			1.0; 1.0; 1.0;;
			0.0; 0.0; 0.0;;
			TextureFilename { "Wall7.png"; }
		}
Frame cube4 {
	Mesh {
		24;
		-1.996264032, 2.862086767157161, 1.996264032;,
		-1.996264032, 2.9925167286360774, 1.996264032;,
		-1.996264032, 2.9925167286360774, -1.996264032;,
		-1.996264032, 2.862086767157161, -1.996264032;,
		-1.996264032, 2.862086767157161, 1.996264032;,
		1.996264032, 2.862086767157161, 1.996264032;,
		1.996264032, 2.9925167286360774, 1.996264032;,
		-1.996264032, 2.9925167286360774, 1.996264032;,
		-1.996264032, 2.862086767157161, 1.996264032;,
		-1.996264032, 2.862086767157161, -1.996264032;,
		1.996264032, 2.862086767157161, -1.996264032;,
		1.996264032, 2.862086767157161, 1.996264032;,
		-1.996264032, 2.9925167286360774, 1.996264032;,
		1.996264032, 2.9925167286360774, 1.996264032;,
		1.996264032, 2.9925167286360774, -1.996264032;,
		-1.996264032, 2.9925167286360774, -1.996264032;,
		1.996264032, 2.9925167286360774, 1.996264032;,
		1.996264032, 2.862086767157161, 1.996264032;,
		1.996264032, 2.862086767157161, -1.996264032;,
		1.996264032, 2.9925167286360774, -1.996264032;,
		-1.996264032, 2.862086767157161, -1.996264032;,
		-1.996264032, 2.9925167286360774, -1.996264032;,
		1.996264032, 2.9925167286360774, -1.996264032;,
		1.996264032, 2.862086767157161, -1.996264032;;

		6;
		4;0, 1, 2, 3 ;,
		4;4, 5, 6, 7 ;,
		4;8, 9, 10, 11 ;,
		4;12, 13, 14, 15 ;,
		4;16, 17, 18, 19 ;,
		4;20, 21, 22, 23 ;;

		MeshNormals {
			24;		-0.5773502691896258, -0.5773502691896258, 0.5773502691896258;,
		-0.5773502691896258, 0.5773502691896258, 0.5773502691896258;,
		-0.5773502691896258, 0.5773502691896258, -0.5773502691896258;,
		-0.5773502691896258, -0.5773502691896258, -0.5773502691896258;,
		-0.5773502691896258, -0.5773502691896258, 0.5773502691896258;,
		0.5773502691896258, -0.5773502691896258, 0.5773502691896258;,
		0.5773502691896258, 0.5773502691896258, 0.5773502691896258;,
		-0.5773502691896258, 0.5773502691896258, 0.5773502691896258;,
		-0.5773502691896258, -0.5773502691896258, 0.5773502691896258;,
		-0.5773502691896258, -0.5773502691896258, -0.5773502691896258;,
		0.5773502691896258, -0.5773502691896258, -0.5773502691896258;,
		0.5773502691896258, -0.5773502691896258, 0.5773502691896258;,
		-0.5773502691896258, 0.5773502691896258, 0.5773502691896258;,
		0.5773502691896258, 0.5773502691896258, 0.5773502691896258;,
		0.5773502691896258, 0.5773502691896258, -0.5773502691896258;,
		-0.5773502691896258, 0.5773502691896258, -0.5773502691896258;,
		0.5773502691896258, 0.5773502691896258, 0.5773502691896258;,
		0.5773502691896258, -0.5773502691896258, 0.5773502691896258;,
		0.5773502691896258, -0.5773502691896258, -0.5773502691896258;,
		0.5773502691896258, 0.5773502691896258, -0.5773502691896258;,
		-0.5773502691896258, -0.5773502691896258, -0.5773502691896258;,
		-0.5773502691896258, 0.5773502691896258, -0.5773502691896258;,
		0.5773502691896258, 0.5773502691896258, -0.5773502691896258;,
		0.5773502691896258, -0.5773502691896258, -0.5773502691896258;;
		6;
		4;0, 1, 2, 3 ;,
		4;4, 5, 6, 7 ;,
		4;8, 9, 10, 11 ;,
		4;12, 13, 14, 15 ;,
		4;16, 17, 18, 19 ;,
		4;20, 21, 22, 23 ;;
		}
		MeshTextureCoords {
		24;
		0.5, 0.4509972280514507;,
		0.5, 0.4346629707352676;,
		0.0, 0.4346629707352676;,
		0.0, 0.4509972280514507;,
		0.0, 0.4836657426838168;,
		0.5, 0.4836657426838168;,
		0.5, 0.4673314853676337;,
		0.0, 0.4673314853676337;,
		1.006888888888889, 1.0075444444444444;,
		1.006888888888889, -0.006455555555555659;,
		-0.007111111111111103, -0.006455555555555659;,
		-0.007111111111111158, 1.0075444444444444;,
		0.5000000000000001, 1.0;,
		1.0, 1.0;,
		1.0, 0.5;,
		0.5000000000000001, 0.5;,
		0.0, 0.4509972280514507;,
		0.0, 0.4673314853676338;,
		0.5, 0.4673314853676338;,
		0.5, 0.4509972280514507;,
		0.5, 0.5;,
		0.5, 0.483665742683817;,
		0.0, 0.4836657426838169;,
		0.0, 0.4999999999999999;;
		}
		MeshMaterialList {
			2;
			6;
			1;
			1;
			1;
			1;
			1;
			1;
			;
			{cube3_auv}
			{cube4_auv}
		}
	}}Frame cube3 {
	Mesh {
		24;
		-2.00586, -0.016199142608085054, 2.00586;,
		-2.00586, 0.048408679935516424, 2.00586;,
		-2.00586, 0.048408679935516424, -2.00586;,
		-2.00586, -0.016199142608085054, -2.00586;,
		-2.00586, -0.016199142608085054, 2.00586;,
		2.00586, -0.016199142608085054, 2.00586;,
		2.00586, 0.048408679935516424, 2.00586;,
		-2.00586, 0.048408679935516424, 2.00586;,
		-2.00586, -0.016199142608085054, 2.00586;,
		-2.00586, -0.016199142608085054, -2.00586;,
		2.00586, -0.016199142608085054, -2.00586;,
		2.00586, -0.016199142608085054, 2.00586;,
		-2.00586, 0.048408679935516424, 2.00586;,
		2.00586, 0.048408679935516424, 2.00586;,
		2.00586, 0.048408679935516424, -2.00586;,
		-2.00586, 0.048408679935516424, -2.00586;,
		2.00586, 0.048408679935516424, 2.00586;,
		2.00586, -0.016199142608085054, 2.00586;,
		2.00586, -0.016199142608085054, -2.00586;,
		2.00586, 0.048408679935516424, -2.00586;,
		-2.00586, -0.016199142608085054, -2.00586;,
		-2.00586, 0.048408679935516424, -2.00586;,
		2.00586, 0.048408679935516424, -2.00586;,
		2.00586, -0.016199142608085054, -2.00586;;

		6;
		4;0, 1, 2, 3 ;,
		4;4, 5, 6, 7 ;,
		4;8, 9, 10, 11 ;,
		4;12, 13, 14, 15 ;,
		4;16, 17, 18, 19 ;,
		4;20, 21, 22, 23 ;;

		MeshNormals {
			24;		-0.5773502691896258, -0.5773502691896258, 0.5773502691896258;,
		-0.5773502691896258, 0.5773502691896258, 0.5773502691896258;,
		-0.5773502691896258, 0.5773502691896258, -0.5773502691896258;,
		-0.5773502691896258, -0.5773502691896258, -0.5773502691896258;,
		-0.5773502691896258, -0.5773502691896258, 0.5773502691896258;,
		0.5773502691896258, -0.5773502691896258, 0.5773502691896258;,
		0.5773502691896258, 0.5773502691896258, 0.5773502691896258;,
		-0.5773502691896258, 0.5773502691896258, 0.5773502691896258;,
		-0.5773502691896258, -0.5773502691896258, 0.5773502691896258;,
		-0.5773502691896258, -0.5773502691896258, -0.5773502691896258;,
		0.5773502691896258, -0.5773502691896258, -0.5773502691896258;,
		0.5773502691896258, -0.5773502691896258, 0.5773502691896258;,
		-0.5773502691896258, 0.5773502691896258, 0.5773502691896258;,
		0.5773502691896258, 0.5773502691896258, 0.5773502691896258;,
		0.5773502691896258, 0.5773502691896258, -0.5773502691896258;,
		-0.5773502691896258, 0.5773502691896258, -0.5773502691896258;,
		0.5773502691896258, 0.5773502691896258, 0.5773502691896258;,
		0.5773502691896258, -0.5773502691896258, 0.5773502691896258;,
		0.5773502691896258, -0.5773502691896258, -0.5773502691896258;,
		0.5773502691896258, 0.5773502691896258, -0.5773502691896258;,
		-0.5773502691896258, -0.5773502691896258, -0.5773502691896258;,
		-0.5773502691896258, 0.5773502691896258, -0.5773502691896258;,
		0.5773502691896258, 0.5773502691896258, -0.5773502691896258;,
		0.5773502691896258, -0.5773502691896258, -0.5773502691896258;;
		6;
		4;0, 1, 2, 3 ;,
		4;4, 5, 6, 7 ;,
		4;8, 9, 10, 11 ;,
		4;12, 13, 14, 15 ;,
		4;16, 17, 18, 19 ;,
		4;20, 21, 22, 23 ;;
		}
		MeshTextureCoords {
		24;
		0.5, 0.47584284700442625;,
		0.5, 0.4677904626725684;,
		0.0, 0.4677904626725684;,
		0.0, 0.47584284700442625;,
		0.0, 0.49194761566814194;,
		0.5, 0.49194761566814194;,
		0.5, 0.4838952313362841;,
		0.0, 0.4838952313362841;,
		0.5, 1.0;,
		0.5000000000000001, 0.5;,
		1.1102230246251565e-16, 0.4999999999999999;,
		0.0, 0.9999999999999999;,
		-0.0020222222222218388, 1.0026777777777778;,
		1.0039777777777779, 1.0026777777777778;,
		1.0039777777777779, -0.0033222222222222264;,
		-0.0020222222222218388, -0.0033222222222222264;,
		0.0, 0.47584284700442625;,
		0.0, 0.4838952313362841;,
		0.5, 0.4838952313362841;,
		0.5, 0.47584284700442625;,
		0.5, 0.4999999999999999;,
		0.5, 0.49194761566814205;,
		0.0, 0.49194761566814205;,
		0.0, 0.4999999999999999;;
		}
		MeshMaterialList {
			2;
			6;
			0;
			0;
			0;
			0;
			0;
			0;
			;
			{cube3_auv}
			{cube4_auv}
		}
	}}