xof 0303txt 0064
#Exported from Wings 3D 1.4.1
		Material cube1_auv {
			1.0; 1.0; 1.0; 1.0;;
		1.0;
			1.0; 1.0; 1.0;;
			0.0; 0.0; 0.0;;
			TextureFilename { "Wall6.PNG"; }
		}
Frame cube1 {
	Mesh {
		24;
		-1.9741282079999996, 0.0020000000000000018, 1.9912959999999997;,
		-1.9741282079999996, 2.9931769208981898, 1.9912959999999997;,
		-1.9741282079999996, 2.9931769208981898, -1.9912959999999997;,
		-1.9741282079999996, 0.0020000000000000018, -1.9912959999999997;,
		-1.9741282079999996, 0.0020000000000000018, 1.9912959999999997;,
		1.9741282079999996, 0.0020000000000000018, 1.9912959999999997;,
		1.9741282079999996, 2.9931769208981898, 1.9912959999999997;,
		-1.9741282079999996, 2.9931769208981898, 1.9912959999999997;,
		-1.9741282079999996, 0.0020000000000000018, 1.9912959999999997;,
		-1.9741282079999996, 0.0020000000000000018, -1.9912959999999997;,
		1.9741282079999996, 0.0020000000000000018, -1.9912959999999997;,
		1.9741282079999996, 0.0020000000000000018, 1.9912959999999997;,
		-1.9741282079999996, 2.9931769208981898, 1.9912959999999997;,
		1.9741282079999996, 2.9931769208981898, 1.9912959999999997;,
		1.9741282079999996, 2.9931769208981898, -1.9912959999999997;,
		-1.9741282079999996, 2.9931769208981898, -1.9912959999999997;,
		1.9741282079999996, 2.9931769208981898, 1.9912959999999997;,
		1.9741282079999996, 0.0020000000000000018, 1.9912959999999997;,
		1.9741282079999996, 0.0020000000000000018, -1.9912959999999997;,
		1.9741282079999996, 2.9931769208981898, -1.9912959999999997;,
		-1.9741282079999996, 0.0020000000000000018, -1.9912959999999997;,
		-1.9741282079999996, 2.9931769208981898, -1.9912959999999997;,
		1.9741282079999996, 2.9931769208981898, -1.9912959999999997;,
		1.9741282079999996, 0.0020000000000000018, -1.9912959999999997;;

		6;
		4;0, 1, 2, 3 ;,
		4;4, 5, 6, 7 ;,
		4;8, 9, 10, 11 ;,
		4;12, 13, 14, 15 ;,
		4;16, 17, 18, 19 ;,
		4;20, 21, 22, 23 ;;

		MeshNormals {
			24;		-0.5773502691896258, -0.5773502691896258, 0.5773502691896258;,
		-0.5773502691896258, 0.5773502691896258, 0.5773502691896258;,
		-0.5773502691896258, 0.5773502691896258, -0.5773502691896258;,
		-0.5773502691896258, -0.5773502691896258, -0.5773502691896258;,
		-0.5773502691896258, -0.5773502691896258, 0.5773502691896258;,
		0.5773502691896258, -0.5773502691896258, 0.5773502691896258;,
		0.5773502691896258, 0.5773502691896258, 0.5773502691896258;,
		-0.5773502691896258, 0.5773502691896258, 0.5773502691896258;,
		-0.5773502691896258, -0.5773502691896258, 0.5773502691896258;,
		-0.5773502691896258, -0.5773502691896258, -0.5773502691896258;,
		0.5773502691896258, -0.5773502691896258, -0.5773502691896258;,
		0.5773502691896258, -0.5773502691896258, 0.5773502691896258;,
		-0.5773502691896258, 0.5773502691896258, 0.5773502691896258;,
		0.5773502691896258, 0.5773502691896258, 0.5773502691896258;,
		0.5773502691896258, 0.5773502691896258, -0.5773502691896258;,
		-0.5773502691896258, 0.5773502691896258, -0.5773502691896258;,
		0.5773502691896258, 0.5773502691896258, 0.5773502691896258;,
		0.5773502691896258, -0.5773502691896258, 0.5773502691896258;,
		0.5773502691896258, -0.5773502691896258, -0.5773502691896258;,
		0.5773502691896258, 0.5773502691896258, -0.5773502691896258;,
		-0.5773502691896258, -0.5773502691896258, -0.5773502691896258;,
		-0.5773502691896258, 0.5773502691896258, -0.5773502691896258;,
		0.5773502691896258, 0.5773502691896258, -0.5773502691896258;,
		0.5773502691896258, -0.5773502691896258, -0.5773502691896258;;
		6;
		4;0, 1, 2, 3 ;,
		4;4, 5, 6, 7 ;,
		4;8, 9, 10, 11 ;,
		4;12, 13, 14, 15 ;,
		4;16, 17, 18, 19 ;,
		4;20, 21, 22, 23 ;;
		}
		MeshTextureCoords {
		24;
		1.072121880828859, 0.9334325680194698;,
		1.072121880828859, 0.0863530750863688;,
		-0.05571913330493865, 0.0863530750863688;,
		-0.05571913330493865, 0.9334325680194698;,
		-0.02408492329177931, 0.8687318027056065;,
		1.023506316002114, 0.8687318027056065;,
		1.023506316002114, 0.07508255418855514;,
		-0.02408492329177931, 0.07508255418855514;,
		0.43998120497751886, 0.9988444444444444;,
		0.4399812049775189, 0.5991842693438783;,
		0.04376666666666672, 0.5991842693438783;,
		0.04376666666666666, 0.9988444444444444;,
		0.44342684176723285, 0.6986745319947276;,
		0.839641380078085, 0.6986745319947276;,
		0.839641380078085, 0.29901435689416145;,
		0.44342684176723285, 0.29901435689416145;,
		0.04376666666666666, 0.6053810235608281;,
		0.04376666666666666, 0.9055509360105449;,
		0.4434268417672328, 0.9055509360105449;,
		0.4434268417672328, 0.6053810235608281;,
		0.7376812049775188, 0.4265588013386059;,
		0.7376812049775189, 0.1263888888888891;,
		0.3414666666666667, 0.12638888888888888;,
		0.34146666666666664, 0.4265588013386058;;
		}
		MeshMaterialList {
			1;
			6;
			0;
			0;
			0;
			0;
			0;
			0;
			;
			{cube1_auv}
		}
	}}