xof 0303txt 0064
#Exported from Wings 3D 1.4.1
		Material cube1_auv {
			1.0; 1.0; 1.0; 1.0;;
		1.0;
			1.0; 1.0; 1.0;;
			0.0; 0.0; 0.0;;
			TextureFilename { "Wall6.PNG"; }
		}
Frame cube1 {
	Mesh {
		24;
		-2.0257398158699518, 0.0020000000000000018, 2.0390871039999996;,
		-2.0257398158699518, 2.9931769208981898, 2.0390871039999996;,
		-2.0257398158699518, 2.9931769208981898, -2.0390871039999996;,
		-2.0257398158699518, 0.0020000000000000018, -2.0390871039999996;,
		-2.0257398158699518, 0.0020000000000000018, 2.0390871039999996;,
		2.0257398158699518, 0.0020000000000000018, 2.0390871039999996;,
		2.0257398158699518, 2.9931769208981898, 2.0390871039999996;,
		-2.0257398158699518, 2.9931769208981898, 2.0390871039999996;,
		-2.0257398158699518, 0.0020000000000000018, 2.0390871039999996;,
		-2.0257398158699518, 0.0020000000000000018, -2.0390871039999996;,
		2.0257398158699518, 0.0020000000000000018, -2.0390871039999996;,
		2.0257398158699518, 0.0020000000000000018, 2.0390871039999996;,
		-2.0257398158699518, 2.9931769208981898, 2.0390871039999996;,
		2.0257398158699518, 2.9931769208981898, 2.0390871039999996;,
		2.0257398158699518, 2.9931769208981898, -2.0390871039999996;,
		-2.0257398158699518, 2.9931769208981898, -2.0390871039999996;,
		2.0257398158699518, 2.9931769208981898, 2.0390871039999996;,
		2.0257398158699518, 0.0020000000000000018, 2.0390871039999996;,
		2.0257398158699518, 0.0020000000000000018, -2.0390871039999996;,
		2.0257398158699518, 2.9931769208981898, -2.0390871039999996;,
		-2.0257398158699518, 0.0020000000000000018, -2.0390871039999996;,
		-2.0257398158699518, 2.9931769208981898, -2.0390871039999996;,
		2.0257398158699518, 2.9931769208981898, -2.0390871039999996;,
		2.0257398158699518, 0.0020000000000000018, -2.0390871039999996;;

		6;
		4;0, 1, 2, 3 ;,
		4;4, 5, 6, 7 ;,
		4;8, 9, 10, 11 ;,
		4;12, 13, 14, 15 ;,
		4;16, 17, 18, 19 ;,
		4;20, 21, 22, 23 ;;

		MeshNormals {
			24;		-0.5773502691896258, -0.5773502691896258, 0.5773502691896258;,
		-0.5773502691896258, 0.5773502691896258, 0.5773502691896258;,
		-0.5773502691896258, 0.5773502691896258, -0.5773502691896258;,
		-0.5773502691896258, -0.5773502691896258, -0.5773502691896258;,
		-0.5773502691896258, -0.5773502691896258, 0.5773502691896258;,
		0.5773502691896258, -0.5773502691896258, 0.5773502691896258;,
		0.5773502691896258, 0.5773502691896258, 0.5773502691896258;,
		-0.5773502691896258, 0.5773502691896258, 0.5773502691896258;,
		-0.5773502691896258, -0.5773502691896258, 0.5773502691896258;,
		-0.5773502691896258, -0.5773502691896258, -0.5773502691896258;,
		0.5773502691896258, -0.5773502691896258, -0.5773502691896258;,
		0.5773502691896258, -0.5773502691896258, 0.5773502691896258;,
		-0.5773502691896258, 0.5773502691896258, 0.5773502691896258;,
		0.5773502691896258, 0.5773502691896258, 0.5773502691896258;,
		0.5773502691896258, 0.5773502691896258, -0.5773502691896258;,
		-0.5773502691896258, 0.5773502691896258, -0.5773502691896258;,
		0.5773502691896258, 0.5773502691896258, 0.5773502691896258;,
		0.5773502691896258, -0.5773502691896258, 0.5773502691896258;,
		0.5773502691896258, -0.5773502691896258, -0.5773502691896258;,
		0.5773502691896258, 0.5773502691896258, -0.5773502691896258;,
		-0.5773502691896258, -0.5773502691896258, -0.5773502691896258;,
		-0.5773502691896258, 0.5773502691896258, -0.5773502691896258;,
		0.5773502691896258, 0.5773502691896258, -0.5773502691896258;,
		0.5773502691896258, -0.5773502691896258, -0.5773502691896258;;
		6;
		4;0, 1, 2, 3 ;,
		4;4, 5, 6, 7 ;,
		4;8, 9, 10, 11 ;,
		4;12, 13, 14, 15 ;,
		4;16, 17, 18, 19 ;,
		4;20, 21, 22, 23 ;;
		}
		MeshTextureCoords {
		24;
		0.9890310382655989, 0.495005066419979;,
		0.9890310382655989, 0.005647243352526421;,
		0.5219494870360994, 0.005647243352526421;,
		0.5219494870360994, 0.495005066419979;,
		0.2519482088541244, 0.5031527306330432;,
		0.715117628300655, 0.5031527306330432;,
		0.715117628300655, 0.010506070705562864;,
		0.2519482088541244, 0.010506070705562864;,
		0.43998120497751886, 0.9988444444444444;,
		0.4399812049775189, 0.5991842693438783;,
		0.04376666666666672, 0.5991842693438783;,
		0.04376666666666666, 0.9988444444444444;,
		0.44342684176723285, 0.6986745319947276;,
		0.839641380078085, 0.6986745319947276;,
		0.839641380078085, 0.29901435689416145;,
		0.44342684176723285, 0.29901435689416145;,
		0.011778766759287296, -3.40815241256065e-4;,
		0.011778766759287296, 0.5062283303681852;,
		0.4921702972301678, 0.5062283303681852;,
		0.4921702972301678, -3.40815241256065e-4;,
		0.30723676053307436, 0.49112546800527257;,
		0.30723676053307447, 0.19095555555555566;,
		-0.08897777777777774, 0.19095555555555543;,
		-0.0889777777777778, 0.49112546800527246;;
		}
		MeshMaterialList {
			1;
			6;
			0;
			0;
			0;
			0;
			0;
			0;
			;
			{cube1_auv}
		}
	}}