xof 0303txt 0064
#Exported from Wings 3D 1.4.1
		Material cube1_auv {
			1.0; 1.0; 1.0; 1.0;;
		1.0;
			1.0; 1.0; 1.0;;
			0.0; 0.0; 0.0;;
			TextureFilename { "cityblocktest.jpg"; }
		}
Frame cube1 {
	Mesh {
		24;
		-1.0, 0.0, 1.0;,
		-1.0, 0.05773807294314759, 1.0;,
		-1.0, 0.05773807294314759, -1.0;,
		-1.0, 0.0, -1.0;,
		-1.0, 0.0, 1.0;,
		1.0, 0.0, 1.0;,
		1.0, 0.05773807294314759, 1.0;,
		-1.0, 0.05773807294314759, 1.0;,
		-1.0, 0.0, 1.0;,
		-1.0, 0.0, -1.0;,
		1.0, 0.0, -1.0;,
		1.0, 0.0, 1.0;,
		-1.0, 0.05773807294314759, 1.0;,
		1.0, 0.05773807294314759, 1.0;,
		1.0, 0.05773807294314759, -1.0;,
		-1.0, 0.05773807294314759, -1.0;,
		1.0, 0.05773807294314759, 1.0;,
		1.0, 0.0, 1.0;,
		1.0, 0.0, -1.0;,
		1.0, 0.05773807294314759, -1.0;,
		-1.0, 0.0, -1.0;,
		-1.0, 0.05773807294314759, -1.0;,
		1.0, 0.05773807294314759, -1.0;,
		1.0, 0.0, -1.0;;

		6;
		4;0, 1, 2, 3 ;,
		4;4, 5, 6, 7 ;,
		4;8, 9, 10, 11 ;,
		4;12, 13, 14, 15 ;,
		4;16, 17, 18, 19 ;,
		4;20, 21, 22, 23 ;;

		MeshNormals {
			24;		-0.5773502691896258, -0.5773502691896258, 0.5773502691896258;,
		-0.5773502691896258, 0.5773502691896258, 0.5773502691896258;,
		-0.5773502691896258, 0.5773502691896258, -0.5773502691896258;,
		-0.5773502691896258, -0.5773502691896258, -0.5773502691896258;,
		-0.5773502691896258, -0.5773502691896258, 0.5773502691896258;,
		0.5773502691896258, -0.5773502691896258, 0.5773502691896258;,
		0.5773502691896258, 0.5773502691896258, 0.5773502691896258;,
		-0.5773502691896258, 0.5773502691896258, 0.5773502691896258;,
		-0.5773502691896258, -0.5773502691896258, 0.5773502691896258;,
		-0.5773502691896258, -0.5773502691896258, -0.5773502691896258;,
		0.5773502691896258, -0.5773502691896258, -0.5773502691896258;,
		0.5773502691896258, -0.5773502691896258, 0.5773502691896258;,
		-0.5773502691896258, 0.5773502691896258, 0.5773502691896258;,
		0.5773502691896258, 0.5773502691896258, 0.5773502691896258;,
		0.5773502691896258, 0.5773502691896258, -0.5773502691896258;,
		-0.5773502691896258, 0.5773502691896258, -0.5773502691896258;,
		0.5773502691896258, 0.5773502691896258, 0.5773502691896258;,
		0.5773502691896258, -0.5773502691896258, 0.5773502691896258;,
		0.5773502691896258, -0.5773502691896258, -0.5773502691896258;,
		0.5773502691896258, 0.5773502691896258, -0.5773502691896258;,
		-0.5773502691896258, -0.5773502691896258, -0.5773502691896258;,
		-0.5773502691896258, 0.5773502691896258, -0.5773502691896258;,
		0.5773502691896258, 0.5773502691896258, -0.5773502691896258;,
		0.5773502691896258, -0.5773502691896258, -0.5773502691896258;;
		6;
		4;0, 1, 2, 3 ;,
		4;4, 5, 6, 7 ;,
		4;8, 9, 10, 11 ;,
		4;12, 13, 14, 15 ;,
		4;16, 17, 18, 19 ;,
		4;20, 21, 22, 23 ;;
		}
		MeshTextureCoords {
		24;
		0.5, 0.9855654817642112;,
		0.5000000000000001, 0.9711309635284244;,
		1.1102230246251565e-16, 0.9711309635284261;,
		0.0, 0.985565481764213;,
		0.0, 0.9566964452926361;,
		0.4999999999999999, 0.9566964452926361;,
		0.5, 0.9422619270568492;,
		0.0, 0.9422619270568492;,
		1.0, 1.0;,
		1.0, 0.5000000000000002;,
		0.5000000000000002, 0.5000000000000003;,
		0.5000000000000003, 1.0;,
		5.551115123125783e-17, 0.9422619270568492;,
		0.4999999999999997, 0.9422619270568491;,
		0.49999999999999967, 0.4422619270568494;,
		0.0, 0.4422619270568495;,
		0.0, 0.9566964452926375;,
		0.0, 0.9711309635284244;,
		0.4999999999999999, 0.971130963528423;,
		0.5, 0.9566964452926361;,
		0.5000000000000002, 1.0;,
		0.5000000000000002, 0.9855654817642132;,
		0.0, 0.985565481764213;,
		5.551115123125783e-17, 0.9999999999999999;;
		}
		MeshMaterialList {
			1;
			6;
			0;
			0;
			0;
			0;
			0;
			0;
			;
			{cube1_auv}
		}
	}}