xof 0303txt 0064
#Exported from Wings 3D 1.4.1
		Material cube1_auv {
			1.0; 1.0; 1.0; 1.0;;
		1.0;
			1.0; 1.0; 1.0;;
			0.0; 0.0; 0.0;;
			TextureFilename { "giant.png"; }
		}
Frame cube1 {
	Mesh {
		24;
		-0.043698687999999875, 0.08820433066666683, 1.186;,
		-0.043698687999999875, 2.4602043306666666, 1.186;,
		-0.043698687999999875, 2.4602043306666666, -1.186;,
		-0.043698687999999875, 0.08820433066666683, -1.186;,
		-0.043698687999999875, 0.08820433066666683, 1.186;,
		0.043698687999999875, 0.08820433066666683, 1.186;,
		0.043698687999999875, 2.4602043306666666, 1.186;,
		-0.043698687999999875, 2.4602043306666666, 1.186;,
		-0.043698687999999875, 0.08820433066666683, 1.186;,
		-0.043698687999999875, 0.08820433066666683, -1.186;,
		0.043698687999999875, 0.08820433066666683, -1.186;,
		0.043698687999999875, 0.08820433066666683, 1.186;,
		-0.043698687999999875, 2.4602043306666666, 1.186;,
		0.043698687999999875, 2.4602043306666666, 1.186;,
		0.043698687999999875, 2.4602043306666666, -1.186;,
		-0.043698687999999875, 2.4602043306666666, -1.186;,
		0.043698687999999875, 2.4602043306666666, 1.186;,
		0.043698687999999875, 0.08820433066666683, 1.186;,
		0.043698687999999875, 0.08820433066666683, -1.186;,
		0.043698687999999875, 2.4602043306666666, -1.186;,
		-0.043698687999999875, 0.08820433066666683, -1.186;,
		-0.043698687999999875, 2.4602043306666666, -1.186;,
		0.043698687999999875, 2.4602043306666666, -1.186;,
		0.043698687999999875, 0.08820433066666683, -1.186;;

		6;
		4;0, 1, 2, 3 ;,
		4;4, 5, 6, 7 ;,
		4;8, 9, 10, 11 ;,
		4;12, 13, 14, 15 ;,
		4;16, 17, 18, 19 ;,
		4;20, 21, 22, 23 ;;

		MeshNormals {
			24;		-0.5773502691896258, -0.5773502691896258, 0.5773502691896258;,
		-0.5773502691896258, 0.5773502691896258, 0.5773502691896258;,
		-0.5773502691896258, 0.5773502691896258, -0.5773502691896258;,
		-0.5773502691896258, -0.5773502691896258, -0.5773502691896258;,
		-0.5773502691896258, -0.5773502691896258, 0.5773502691896258;,
		0.5773502691896258, -0.5773502691896258, 0.5773502691896258;,
		0.5773502691896258, 0.5773502691896258, 0.5773502691896258;,
		-0.5773502691896258, 0.5773502691896258, 0.5773502691896258;,
		-0.5773502691896258, -0.5773502691896258, 0.5773502691896258;,
		-0.5773502691896258, -0.5773502691896258, -0.5773502691896258;,
		0.5773502691896258, -0.5773502691896258, -0.5773502691896258;,
		0.5773502691896258, -0.5773502691896258, 0.5773502691896258;,
		-0.5773502691896258, 0.5773502691896258, 0.5773502691896258;,
		0.5773502691896258, 0.5773502691896258, 0.5773502691896258;,
		0.5773502691896258, 0.5773502691896258, -0.5773502691896258;,
		-0.5773502691896258, 0.5773502691896258, -0.5773502691896258;,
		0.5773502691896258, 0.5773502691896258, 0.5773502691896258;,
		0.5773502691896258, -0.5773502691896258, 0.5773502691896258;,
		0.5773502691896258, -0.5773502691896258, -0.5773502691896258;,
		0.5773502691896258, 0.5773502691896258, -0.5773502691896258;,
		-0.5773502691896258, -0.5773502691896258, -0.5773502691896258;,
		-0.5773502691896258, 0.5773502691896258, -0.5773502691896258;,
		0.5773502691896258, 0.5773502691896258, -0.5773502691896258;,
		0.5773502691896258, -0.5773502691896258, -0.5773502691896258;;
		6;
		4;0, 1, 2, 3 ;,
		4;4, 5, 6, 7 ;,
		4;8, 9, 10, 11 ;,
		4;12, 13, 14, 15 ;,
		4;16, 17, 18, 19 ;,
		4;20, 21, 22, 23 ;;
		}
		MeshTextureCoords {
		24;
		0.9651911111111111, 0.9762444444444444;,
		0.9651911111111111, 0.036244444444444524;,
		0.030831111111111087, 0.036244444444444524;,
		0.030831111111111087, 0.9762444444444444;,
		0.9732382328888889, 0.9975444444444445;,
		0.9950875768888889, 0.9975444444444445;,
		0.9950875768888889, 0.49754444444444446;,
		0.9732382328888889, 0.49754444444444446;,
		0.9933160106666665, 0.9989888888888889;,
		0.9933160106666667, 0.4989888888888889;,
		0.9714666666666667, 0.4989888888888889;,
		0.9714666666666667, 0.9989888888888889;,
		0.9732382328888889, 0.49754444444444446;,
		0.9950875768888889, 0.49754444444444446;,
		0.9950875768888889, -0.002455555555555655;,
		0.9732382328888889, -0.002455555555555655;,
		0.0317157777777778, 0.03627133333333332;,
		0.0317157777777778, 0.9731953333333333;,
		0.968639777777778, 0.9731953333333333;,
		0.968639777777778, 0.03627133333333332;,
		0.9933160106666665, 0.4989888888888889;,
		0.9933160106666667, -0.0010111111111110738;,
		0.9714666666666667, -0.0010111111111110738;,
		0.9714666666666667, 0.4989888888888889;;
		}
		MeshMaterialList {
			1;
			6;
			0;
			0;
			0;
			0;
			0;
			0;
			;
			{cube1_auv}
		}
	}}