xof 0303txt 0064
#Exported from Wings 3D 1.4.1
		Material default {
			0.7898538076923077; 0.8133333333333334; 0.6940444444444445; 1.0;;
		1.0;
			1.0; 1.0; 1.0;;
			0.0; 0.0; 0.0;;
		}
		Material image {
			1.0; 1.0; 1.0; 1.0;;
		1.0;
			1.0; 1.0; 1.0;;
			1.0; 1.0; 1.0;;
			TextureFilename { "c:/Documents and Settings/User/Desktop/sword.jpg"; }
		}
Frame cube5 {
	Mesh {
		30;
		-0.036992, 2.1263446630400002, -0.15290365952000007;,
		-0.036992000000000004, 2.2986880000000003, 0.003124449279999969;,
		-0.03699200000000001, 2.3208339251200005, -0.17223878656000002;,
		-0.036992000000000004, 2.1223181312, -0.30209443840000005;,
		-0.036992, 2.1263446630400002, -0.15290365952000007;,
		-0.036992000000000004, 2.1223181312, -0.30209443840000005;,
		4.054676128245158e-18, 2.1223181312, -0.30209443840000005;,
		1.1850746662172268e-17, 2.1263446630400002, -0.15290365952000007;,
		-0.036992, 2.1263446630400002, -0.15290365952000007;,
		1.1850746662172268e-17, 2.1263446630400002, -0.15290365952000007;,
		0.03699200000000001, 2.1263446630400002, -0.15290365952000007;,
		0.036992000000000004, 2.2986880000000003, 0.003124449279999969;,
		-0.036992000000000004, 2.2986880000000003, 0.003124449279999969;,
		-0.036992000000000004, 2.2986880000000003, 0.003124449279999969;,
		0.036992000000000004, 2.2986880000000003, 0.003124449279999969;,
		0.036992, 2.3208339251200005, -0.17223878656000002;,
		-0.03699200000000001, 2.3208339251200005, -0.17223878656000002;,
		0.036992000000000004, 2.2986880000000003, 0.003124449279999969;,
		0.03699200000000001, 2.1263446630400002, -0.15290365952000007;,
		0.036992000000000004, 2.1223181312, -0.30209443840000005;,
		0.036992, 2.3208339251200005, -0.17223878656000002;,
		0.03699200000000001, 2.1263446630400002, -0.15290365952000007;,
		1.1850746662172268e-17, 2.1263446630400002, -0.15290365952000007;,
		4.054676128245158e-18, 2.1223181312, -0.30209443840000005;,
		0.036992000000000004, 2.1223181312, -0.30209443840000005;,
		-0.036992000000000004, 2.1223181312, -0.30209443840000005;,
		-0.03699200000000001, 2.3208339251200005, -0.17223878656000002;,
		0.036992, 2.3208339251200005, -0.17223878656000002;,
		0.036992000000000004, 2.1223181312, -0.30209443840000005;,
		4.054676128245158e-18, 2.1223181312, -0.30209443840000005;;

		7;
		4;0, 1, 2, 3 ;,
		4;4, 5, 6, 7 ;,
		5;8, 9, 10, 11, 12 ;,
		4;13, 14, 15, 16 ;,
		4;17, 18, 19, 20 ;,
		4;21, 22, 23, 24 ;,
		5;25, 26, 27, 28, 29 ;;

		MeshNormals {
			30;		-0.4777200874414732, -0.7981661606024066, 0.36703446449090393;,
		-0.7344116555603212, 0.23572701935276183, 0.6364528989047115;,
		-0.5079018545106493, 0.7819338621911774, -0.36140716836199016;,
		-0.7331551379444562, -0.33154647560064565, -0.5937680340187032;,
		-0.4777200874414732, -0.7981661606024066, 0.36703446449090393;,
		-0.7331551379444562, -0.33154647560064565, -0.5937680340187032;,
		0.0, -0.8801841543337757, -0.47463233608735084;,
		0.0, -0.9584013848532668, 0.2854238699046396;,
		-0.4777200874414732, -0.7981661606024066, 0.36703446449090393;,
		0.0, -0.9584013848532668, 0.2854238699046396;,
		0.4777200874414732, -0.7981661606024065, 0.36703446449090393;,
		0.7344116555603212, 0.23572701935276194, 0.6364528989047115;,
		-0.7344116555603212, 0.23572701935276183, 0.6364528989047115;,
		-0.7344116555603212, 0.23572701935276183, 0.6364528989047115;,
		0.7344116555603212, 0.23572701935276194, 0.6364528989047115;,
		0.5079018545106493, 0.7819338621911776, -0.36140716836199016;,
		-0.5079018545106493, 0.7819338621911774, -0.36140716836199016;,
		0.7344116555603212, 0.23572701935276194, 0.6364528989047115;,
		0.4777200874414732, -0.7981661606024065, 0.36703446449090393;,
		0.7331551379444562, -0.33154647560064554, -0.5937680340187032;,
		0.5079018545106493, 0.7819338621911776, -0.36140716836199016;,
		0.4777200874414732, -0.7981661606024065, 0.36703446449090393;,
		0.0, -0.9584013848532668, 0.2854238699046396;,
		0.0, -0.8801841543337757, -0.47463233608735084;,
		0.7331551379444562, -0.33154647560064554, -0.5937680340187032;,
		-0.7331551379444562, -0.33154647560064565, -0.5937680340187032;,
		-0.5079018545106493, 0.7819338621911774, -0.36140716836199016;,
		0.5079018545106493, 0.7819338621911776, -0.36140716836199016;,
		0.7331551379444562, -0.33154647560064554, -0.5937680340187032;,
		0.0, -0.8801841543337757, -0.47463233608735084;;
		7;
		4;0, 1, 2, 3 ;,
		4;4, 5, 6, 7 ;,
		5;8, 9, 10, 11, 12 ;,
		4;13, 14, 15, 16 ;,
		4;17, 18, 19, 20 ;,
		4;21, 22, 23, 24 ;,
		5;25, 26, 27, 28, 29 ;;
		}
		MeshMaterialList {
			2;
			7;
			0;
			0;
			0;
			0;
			0;
			0;
			0;
			;
			{default}
			{image}
		}
	}}Frame cone4 {
	Mesh {
		64;
		-0.10718953696736203, 2.332691002549051, -5.284415734677418e-19;,
		-0.09904894284028738, 2.3328501526116776, 0.040933350659499455;,
		-0.07586649212024105, 2.333303373645223, 0.07563496974283786;,
		-0.04117150277991098, 2.333981666855788, 0.09882185031553727;,
		-2.4597243550087024e-4, 2.3347817682508074, 0.10696399999999999;,
		0.040679557908909245, 2.3355818696458273, 0.09882185031553727;,
		0.07537454724923931, 2.336260162856392, 0.07563496974283786;,
		0.09855699796928567, 2.3367133838899377, 0.04093335065949947;,
		0.1066975920963603, 2.3368725339525644, 1.2570870448932006e-17;,
		0.09855699796928567, 2.3367133838899377, -0.04093335065949945;,
		0.07537454724923934, 2.336260162856392, -0.07563496974283786;,
		0.04067955790890931, 2.3355818696458273, -0.09882185031553724;,
		-2.4597243550084416e-4, 2.3347817682508074, -0.10696399999999999;,
		-0.041171502779910996, 2.333981666855788, -0.09882185031553725;,
		-0.07586649212024102, 2.333303373645223, -0.07563496974283787;,
		-0.09904894284028735, 2.3328501526116776, -0.040933350659499525;,
		-0.10718953696736203, 2.332691002549051, -5.284415734677418e-19;,
		-0.09904894284028735, 2.3328501526116776, -0.040933350659499525;,
		0.0039355589680132065, 2.1208946391870853, -5.284415734677418e-19;,
		-0.10718953696736203, 2.332691002549051, -5.284415734677418e-19;,
		0.0039355589680132065, 2.1208946391870853, -5.284415734677418e-19;,
		-0.09904894284028738, 2.3328501526116776, 0.040933350659499455;,
		-0.09904894284028738, 2.3328501526116776, 0.040933350659499455;,
		0.0039355589680132065, 2.1208946391870853, -5.284415734677418e-19;,
		-0.07586649212024105, 2.333303373645223, 0.07563496974283786;,
		-0.07586649212024105, 2.333303373645223, 0.07563496974283786;,
		0.0039355589680132065, 2.1208946391870853, -5.284415734677418e-19;,
		-0.04117150277991098, 2.333981666855788, 0.09882185031553727;,
		-0.04117150277991098, 2.333981666855788, 0.09882185031553727;,
		0.0039355589680132065, 2.1208946391870853, -5.284415734677418e-19;,
		-2.4597243550087024e-4, 2.3347817682508074, 0.10696399999999999;,
		-2.4597243550087024e-4, 2.3347817682508074, 0.10696399999999999;,
		0.0039355589680132065, 2.1208946391870853, -5.284415734677418e-19;,
		0.040679557908909245, 2.3355818696458273, 0.09882185031553727;,
		0.040679557908909245, 2.3355818696458273, 0.09882185031553727;,
		0.0039355589680132065, 2.1208946391870853, -5.284415734677418e-19;,
		0.07537454724923931, 2.336260162856392, 0.07563496974283786;,
		0.07537454724923931, 2.336260162856392, 0.07563496974283786;,
		0.0039355589680132065, 2.1208946391870853, -5.284415734677418e-19;,
		0.09855699796928567, 2.3367133838899377, 0.04093335065949947;,
		0.09855699796928567, 2.3367133838899377, 0.04093335065949947;,
		0.0039355589680132065, 2.1208946391870853, -5.284415734677418e-19;,
		0.1066975920963603, 2.3368725339525644, 1.2570870448932006e-17;,
		0.1066975920963603, 2.3368725339525644, 1.2570870448932006e-17;,
		0.0039355589680132065, 2.1208946391870853, -5.284415734677418e-19;,
		0.09855699796928567, 2.3367133838899377, -0.04093335065949945;,
		0.09855699796928567, 2.3367133838899377, -0.04093335065949945;,
		0.0039355589680132065, 2.1208946391870853, -5.284415734677418e-19;,
		0.07537454724923934, 2.336260162856392, -0.07563496974283786;,
		0.07537454724923934, 2.336260162856392, -0.07563496974283786;,
		0.0039355589680132065, 2.1208946391870853, -5.284415734677418e-19;,
		0.04067955790890931, 2.3355818696458273, -0.09882185031553724;,
		0.04067955790890931, 2.3355818696458273, -0.09882185031553724;,
		0.0039355589680132065, 2.1208946391870853, -5.284415734677418e-19;,
		-2.4597243550084416e-4, 2.3347817682508074, -0.10696399999999999;,
		-2.4597243550084416e-4, 2.3347817682508074, -0.10696399999999999;,
		0.0039355589680132065, 2.1208946391870853, -5.284415734677418e-19;,
		-0.041171502779910996, 2.333981666855788, -0.09882185031553725;,
		-0.041171502779910996, 2.333981666855788, -0.09882185031553725;,
		0.0039355589680132065, 2.1208946391870853, -5.284415734677418e-19;,
		-0.07586649212024102, 2.333303373645223, -0.07563496974283787;,
		-0.07586649212024102, 2.333303373645223, -0.07563496974283787;,
		0.0039355589680132065, 2.1208946391870853, -5.284415734677418e-19;,
		-0.09904894284028735, 2.3328501526116776, -0.040933350659499525;;

		17;
		16;0, 1, 2, 3, 4, 5, 6, 7, 8, 9, 10, 11, 12, 13, 14, 15 ;,
		3;16, 17, 18 ;,
		3;19, 20, 21 ;,
		3;22, 23, 24 ;,
		3;25, 26, 27 ;,
		3;28, 29, 30 ;,
		3;31, 32, 33 ;,
		3;34, 35, 36 ;,
		3;37, 38, 39 ;,
		3;40, 41, 42 ;,
		3;43, 44, 45 ;,
		3;46, 47, 48 ;,
		3;49, 50, 51 ;,
		3;52, 53, 54 ;,
		3;55, 56, 57 ;,
		3;58, 59, 60 ;,
		3;61, 62, 63 ;;

		MeshNormals {
			64;		-0.9988412987220301, 0.048125460696892726, -1.4151054200188986e-16;,
		-0.9229096727044962, 0.049609937486600704, 0.38180700639335485;,
		-0.7066746963911572, 0.05383736972130485, 0.705487357152456;,
		-0.3830561847507846, 0.06016416916504124, 0.9217636530439096;,
		-0.001322122571501185, 0.06762713795508087, 0.9977097885677529;,
		0.3804119396077808, 0.07509010674511829, 0.9217636530439096;,
		0.7040304512481556, 0.08141690618885453, 0.7054873571524536;,
		0.9202654275614898, 0.08564433842356012, 0.38180700639335996;,
		0.9961970535790257, 0.08712881521326761, 4.4025501956143647e-16;,
		0.9202654275614904, 0.08564433842355995, -0.38180700639335846;,
		0.7040304512481571, 0.08141690618885424, -0.7054873571524521;,
		0.3804119396077816, 0.07509010674511843, -0.9217636530439092;,
		-0.0013221225715012806, 0.06762713795508117, -0.9977097885677529;,
		-0.383056184750784, 0.06016416916504179, -0.9217636530439098;,
		-0.7066746963911583, 0.0538373697213049, -0.7054873571524551;,
		-0.9229096727044972, 0.04960993748660018, -0.3818070063933526;,
		-0.9988412987220301, 0.048125460696892726, -1.4151054200188986e-16;,
		-0.9229096727044972, 0.04960993748660018, -0.3818070063933526;,
		0.019546442744821334, -0.9998089500379678, 4.530852256919217e-16;,
		-0.9988412987220301, 0.048125460696892726, -1.4151054200188986e-16;,
		0.019546442744821334, -0.9998089500379678, 4.530852256919217e-16;,
		-0.9229096727044962, 0.049609937486600704, 0.38180700639335485;,
		-0.9229096727044962, 0.049609937486600704, 0.38180700639335485;,
		0.019546442744821334, -0.9998089500379678, 4.530852256919217e-16;,
		-0.7066746963911572, 0.05383736972130485, 0.705487357152456;,
		-0.7066746963911572, 0.05383736972130485, 0.705487357152456;,
		0.019546442744821334, -0.9998089500379678, 4.530852256919217e-16;,
		-0.3830561847507846, 0.06016416916504124, 0.9217636530439096;,
		-0.3830561847507846, 0.06016416916504124, 0.9217636530439096;,
		0.019546442744821334, -0.9998089500379678, 4.530852256919217e-16;,
		-0.001322122571501185, 0.06762713795508087, 0.9977097885677529;,
		-0.001322122571501185, 0.06762713795508087, 0.9977097885677529;,
		0.019546442744821334, -0.9998089500379678, 4.530852256919217e-16;,
		0.3804119396077808, 0.07509010674511829, 0.9217636530439096;,
		0.3804119396077808, 0.07509010674511829, 0.9217636530439096;,
		0.019546442744821334, -0.9998089500379678, 4.530852256919217e-16;,
		0.7040304512481556, 0.08141690618885453, 0.7054873571524536;,
		0.7040304512481556, 0.08141690618885453, 0.7054873571524536;,
		0.019546442744821334, -0.9998089500379678, 4.530852256919217e-16;,
		0.9202654275614898, 0.08564433842356012, 0.38180700639335996;,
		0.9202654275614898, 0.08564433842356012, 0.38180700639335996;,
		0.019546442744821334, -0.9998089500379678, 4.530852256919217e-16;,
		0.9961970535790257, 0.08712881521326761, 4.4025501956143647e-16;,
		0.9961970535790257, 0.08712881521326761, 4.4025501956143647e-16;,
		0.019546442744821334, -0.9998089500379678, 4.530852256919217e-16;,
		0.9202654275614904, 0.08564433842355995, -0.38180700639335846;,
		0.9202654275614904, 0.08564433842355995, -0.38180700639335846;,
		0.019546442744821334, -0.9998089500379678, 4.530852256919217e-16;,
		0.7040304512481571, 0.08141690618885424, -0.7054873571524521;,
		0.7040304512481571, 0.08141690618885424, -0.7054873571524521;,
		0.019546442744821334, -0.9998089500379678, 4.530852256919217e-16;,
		0.3804119396077816, 0.07509010674511843, -0.9217636530439092;,
		0.3804119396077816, 0.07509010674511843, -0.9217636530439092;,
		0.019546442744821334, -0.9998089500379678, 4.530852256919217e-16;,
		-0.0013221225715012806, 0.06762713795508117, -0.9977097885677529;,
		-0.0013221225715012806, 0.06762713795508117, -0.9977097885677529;,
		0.019546442744821334, -0.9998089500379678, 4.530852256919217e-16;,
		-0.383056184750784, 0.06016416916504179, -0.9217636530439098;,
		-0.383056184750784, 0.06016416916504179, -0.9217636530439098;,
		0.019546442744821334, -0.9998089500379678, 4.530852256919217e-16;,
		-0.7066746963911583, 0.0538373697213049, -0.7054873571524551;,
		-0.7066746963911583, 0.0538373697213049, -0.7054873571524551;,
		0.019546442744821334, -0.9998089500379678, 4.530852256919217e-16;,
		-0.9229096727044972, 0.04960993748660018, -0.3818070063933526;;
		17;
		16;0, 1, 2, 3, 4, 5, 6, 7, 8, 9, 10, 11, 12, 13, 14, 15 ;,
		3;16, 17, 18 ;,
		3;19, 20, 21 ;,
		3;22, 23, 24 ;,
		3;25, 26, 27 ;,
		3;28, 29, 30 ;,
		3;31, 32, 33 ;,
		3;34, 35, 36 ;,
		3;37, 38, 39 ;,
		3;40, 41, 42 ;,
		3;43, 44, 45 ;,
		3;46, 47, 48 ;,
		3;49, 50, 51 ;,
		3;52, 53, 54 ;,
		3;55, 56, 57 ;,
		3;58, 59, 60 ;,
		3;61, 62, 63 ;;
		}
		MeshMaterialList {
			2;
			17;
			0;
			0;
			0;
			0;
			0;
			0;
			0;
			0;
			0;
			0;
			0;
			0;
			0;
			0;
			0;
			0;
			0;
			;
			{default}
			{image}
		}
	}}Frame cylinder3 {
	Mesh {
		96;
		0.07421943027917127, 2.8346847453036204, 0.011400270372931278;,
		0.06898934519895675, 2.8346847453036204, 0.03769368364387184;,
		0.06898934519895675, 2.3350401693036202, 0.03769368364387184;,
		0.07421943027917127, 2.3350401693036202, 0.011400270372931278;,
		0.07421943027917127, 2.8346847453036204, 0.011400270372931278;,
		0.06898934519895675, 2.8346847453036204, -0.014893142898009365;,
		0.054095323000936585, 2.8346847453036204, -0.037183622348834044;,
		0.031804843550111886, 2.8346847453036204, -0.05207764454685419;,
		0.0055114302791712845, 2.8346847453036204, -0.05730772962706871;,
		-0.020781982991769324, 2.8346847453036204, -0.05207764454685419;,
		-0.04307246244259401, 2.8346847453036204, -0.037183622348834;,
		-0.05796648464061418, 2.8346847453036204, -0.014893142898009288;,
		-0.0631965697208287, 2.8346847453036204, 0.011400270372931278;,
		-0.05796648464061418, 2.8346847453036204, 0.03769368364387184;,
		-0.04307246244259399, 2.8346847453036204, 0.05998416309469657;,
		-0.020781982991769282, 2.8346847453036204, 0.07487818529271677;,
		0.005511430279171299, 2.8346847453036204, 0.08010827037293128;,
		0.03180484355011188, 2.8346847453036204, 0.07487818529271677;,
		0.054095323000936585, 2.8346847453036204, 0.05998416309469657;,
		0.06898934519895675, 2.8346847453036204, 0.03769368364387184;,
		0.07421943027917127, 2.8346847453036204, 0.011400270372931278;,
		0.07421943027917127, 2.3350401693036202, 0.011400270372931278;,
		0.06898934519895675, 2.3350401693036202, -0.014893142898009365;,
		0.06898934519895675, 2.8346847453036204, -0.014893142898009365;,
		0.06898934519895675, 2.8346847453036204, 0.03769368364387184;,
		0.054095323000936585, 2.8346847453036204, 0.05998416309469657;,
		0.054095323000936585, 2.3350401693036202, 0.05998416309469657;,
		0.06898934519895675, 2.3350401693036202, 0.03769368364387184;,
		0.054095323000936585, 2.8346847453036204, 0.05998416309469657;,
		0.03180484355011188, 2.8346847453036204, 0.07487818529271677;,
		0.03180484355011188, 2.3350401693036202, 0.07487818529271677;,
		0.054095323000936585, 2.3350401693036202, 0.05998416309469657;,
		0.03180484355011188, 2.8346847453036204, 0.07487818529271677;,
		0.005511430279171299, 2.8346847453036204, 0.08010827037293128;,
		0.005511430279171299, 2.3350401693036202, 0.08010827037293128;,
		0.03180484355011188, 2.3350401693036202, 0.07487818529271677;,
		0.005511430279171299, 2.8346847453036204, 0.08010827037293128;,
		-0.020781982991769282, 2.8346847453036204, 0.07487818529271677;,
		-0.020781982991769282, 2.3350401693036202, 0.07487818529271677;,
		0.005511430279171299, 2.3350401693036202, 0.08010827037293128;,
		-0.020781982991769282, 2.8346847453036204, 0.07487818529271677;,
		-0.04307246244259399, 2.8346847453036204, 0.05998416309469657;,
		-0.04307246244259399, 2.3350401693036202, 0.05998416309469657;,
		-0.020781982991769282, 2.3350401693036202, 0.07487818529271677;,
		-0.04307246244259399, 2.8346847453036204, 0.05998416309469657;,
		-0.05796648464061418, 2.8346847453036204, 0.03769368364387184;,
		-0.05796648464061418, 2.3350401693036202, 0.03769368364387184;,
		-0.04307246244259399, 2.3350401693036202, 0.05998416309469657;,
		-0.05796648464061418, 2.8346847453036204, 0.03769368364387184;,
		-0.0631965697208287, 2.8346847453036204, 0.011400270372931278;,
		-0.0631965697208287, 2.3350401693036202, 0.011400270372931278;,
		-0.05796648464061418, 2.3350401693036202, 0.03769368364387184;,
		-0.0631965697208287, 2.8346847453036204, 0.011400270372931278;,
		-0.05796648464061418, 2.8346847453036204, -0.014893142898009288;,
		-0.05796648464061418, 2.3350401693036202, -0.014893142898009288;,
		-0.0631965697208287, 2.3350401693036202, 0.011400270372931278;,
		-0.05796648464061418, 2.8346847453036204, -0.014893142898009288;,
		-0.04307246244259401, 2.8346847453036204, -0.037183622348834;,
		-0.04307246244259401, 2.3350401693036202, -0.037183622348834;,
		-0.05796648464061418, 2.3350401693036202, -0.014893142898009288;,
		-0.04307246244259401, 2.8346847453036204, -0.037183622348834;,
		-0.020781982991769324, 2.8346847453036204, -0.05207764454685419;,
		-0.020781982991769324, 2.3350401693036202, -0.05207764454685419;,
		-0.04307246244259401, 2.3350401693036202, -0.037183622348834;,
		-0.020781982991769324, 2.8346847453036204, -0.05207764454685419;,
		0.0055114302791712845, 2.8346847453036204, -0.05730772962706871;,
		0.0055114302791712845, 2.3350401693036202, -0.05730772962706871;,
		-0.020781982991769324, 2.3350401693036202, -0.05207764454685419;,
		0.0055114302791712845, 2.8346847453036204, -0.05730772962706871;,
		0.031804843550111886, 2.8346847453036204, -0.05207764454685419;,
		0.031804843550111886, 2.3350401693036202, -0.05207764454685419;,
		0.0055114302791712845, 2.3350401693036202, -0.05730772962706871;,
		0.031804843550111886, 2.8346847453036204, -0.05207764454685419;,
		0.054095323000936585, 2.8346847453036204, -0.037183622348834044;,
		0.054095323000936585, 2.3350401693036202, -0.037183622348834044;,
		0.031804843550111886, 2.3350401693036202, -0.05207764454685419;,
		0.054095323000936585, 2.8346847453036204, -0.037183622348834044;,
		0.06898934519895675, 2.8346847453036204, -0.014893142898009365;,
		0.06898934519895675, 2.3350401693036202, -0.014893142898009365;,
		0.054095323000936585, 2.3350401693036202, -0.037183622348834044;,
		0.07421943027917127, 2.3350401693036202, 0.011400270372931278;,
		0.06898934519895675, 2.3350401693036202, 0.03769368364387184;,
		0.054095323000936585, 2.3350401693036202, 0.05998416309469657;,
		0.03180484355011188, 2.3350401693036202, 0.07487818529271677;,
		0.005511430279171299, 2.3350401693036202, 0.08010827037293128;,
		-0.020781982991769282, 2.3350401693036202, 0.07487818529271677;,
		-0.04307246244259399, 2.3350401693036202, 0.05998416309469657;,
		-0.05796648464061418, 2.3350401693036202, 0.03769368364387184;,
		-0.0631965697208287, 2.3350401693036202, 0.011400270372931278;,
		-0.05796648464061418, 2.3350401693036202, -0.014893142898009288;,
		-0.04307246244259401, 2.3350401693036202, -0.037183622348834;,
		-0.020781982991769324, 2.3350401693036202, -0.05207764454685419;,
		0.0055114302791712845, 2.3350401693036202, -0.05730772962706871;,
		0.031804843550111886, 2.3350401693036202, -0.05207764454685419;,
		0.054095323000936585, 2.3350401693036202, -0.037183622348834044;,
		0.06898934519895675, 2.3350401693036202, -0.014893142898009365;;

		18;
		4;0, 1, 2, 3 ;,
		16;4, 5, 6, 7, 8, 9, 10, 11, 12, 13, 14, 15, 16, 17, 18, 19 ;,
		4;20, 21, 22, 23 ;,
		4;24, 25, 26, 27 ;,
		4;28, 29, 30, 31 ;,
		4;32, 33, 34, 35 ;,
		4;36, 37, 38, 39 ;,
		4;40, 41, 42, 43 ;,
		4;44, 45, 46, 47 ;,
		4;48, 49, 50, 51 ;,
		4;52, 53, 54, 55 ;,
		4;56, 57, 58, 59 ;,
		4;60, 61, 62, 63 ;,
		4;64, 65, 66, 67 ;,
		4;68, 69, 70, 71 ;,
		4;72, 73, 74, 75 ;,
		4;76, 77, 78, 79 ;,
		16;80, 81, 82, 83, 84, 85, 86, 87, 88, 89, 90, 91, 92, 93, 94, 95 ;;

		MeshNormals {
			96;		0.8909091543078935, 0.45418154824958934, -2.256486584714015e-15;,
		0.8230927329920033, 0.4541815482495897, 0.34093617309602187;,
		0.8230927329920023, -0.4541815482495891, 0.34093617309602464;,
		0.8909091543078935, -0.45418154824958934, 9.07637062007872e-16;,
		0.8909091543078935, 0.45418154824958934, -2.256486584714015e-15;,
		0.8230927329920017, 0.45418154824958884, -0.3409361730960265;,
		0.6299679044322825, 0.45418154824958856, -0.6299679044322856;,
		0.3409361730960232, 0.45418154824958834, -0.8230927329920034;,
		1.2606070305664858e-17, 0.45418154824958823, -0.890909154307894;,
		-0.3409361730960238, 0.45418154824958834, -0.823092732992003;,
		-0.6299679044322831, 0.4541815482495885, -0.6299679044322849;,
		-0.8230927329920018, 0.45418154824958884, -0.3409361730960265;,
		-0.8909091543078934, 0.45418154824958923, -2.4960019205216473e-15;,
		-0.8230927329920031, 0.4541815482495896, 0.3409361730960221;,
		-0.6299679044322849, 0.45418154824958995, 0.6299679044322821;,
		-0.34093617309602514, 0.45418154824959023, 0.8230927329920016;,
		0.0, 0.45418154824959034, 0.8909091543078931;,
		0.34093617309602514, 0.45418154824959023, 0.8230927329920016;,
		0.6299679044322851, 0.45418154824958995, 0.6299679044322817;,
		0.8230927329920033, 0.4541815482495897, 0.34093617309602187;,
		0.8909091543078935, 0.45418154824958934, -2.256486584714015e-15;,
		0.8909091543078935, -0.45418154824958934, 9.07637062007872e-16;,
		0.8230927329920025, -0.45418154824958934, -0.34093617309602364;,
		0.8230927329920017, 0.45418154824958884, -0.3409361730960265;,
		0.8230927329920033, 0.4541815482495897, 0.34093617309602187;,
		0.6299679044322851, 0.45418154824958995, 0.6299679044322817;,
		0.6299679044322839, -0.45418154824958906, 0.6299679044322837;,
		0.8230927329920023, -0.4541815482495891, 0.34093617309602464;,
		0.6299679044322851, 0.45418154824958995, 0.6299679044322817;,
		0.34093617309602514, 0.45418154824959023, 0.8230927329920016;,
		0.34093617309602425, -0.45418154824958906, 0.8230927329920025;,
		0.6299679044322839, -0.45418154824958906, 0.6299679044322837;,
		0.34093617309602514, 0.45418154824959023, 0.8230927329920016;,
		0.0, 0.45418154824959034, 0.8909091543078931;,
		0.0, -0.45418154824958906, 0.8909091543078936;,
		0.34093617309602425, -0.45418154824958906, 0.8230927329920025;,
		0.0, 0.45418154824959034, 0.8909091543078931;,
		-0.34093617309602514, 0.45418154824959023, 0.8230927329920016;,
		-0.34093617309602425, -0.45418154824958906, 0.8230927329920025;,
		0.0, -0.45418154824958906, 0.8909091543078936;,
		-0.34093617309602514, 0.45418154824959023, 0.8230927329920016;,
		-0.6299679044322849, 0.45418154824958995, 0.6299679044322821;,
		-0.6299679044322837, -0.45418154824958906, 0.629967904432284;,
		-0.34093617309602425, -0.45418154824958906, 0.8230927329920025;,
		-0.6299679044322849, 0.45418154824958995, 0.6299679044322821;,
		-0.8230927329920031, 0.4541815482495896, 0.3409361730960221;,
		-0.8230927329920023, -0.4541815482495891, 0.3409361730960249;,
		-0.6299679044322837, -0.45418154824958906, 0.629967904432284;,
		-0.8230927329920031, 0.4541815482495896, 0.3409361730960221;,
		-0.8909091543078934, 0.45418154824958923, -2.4960019205216473e-15;,
		-0.8909091543078934, -0.45418154824958923, 6.681217262002389e-16;,
		-0.8230927329920023, -0.4541815482495891, 0.3409361730960249;,
		-0.8909091543078934, 0.45418154824958923, -2.4960019205216473e-15;,
		-0.8230927329920018, 0.45418154824958884, -0.3409361730960265;,
		-0.8230927329920026, -0.45418154824958934, -0.34093617309602364;,
		-0.8909091543078934, -0.45418154824958923, 6.681217262002389e-16;,
		-0.8230927329920018, 0.45418154824958884, -0.3409361730960265;,
		-0.6299679044322831, 0.4541815482495885, -0.6299679044322849;,
		-0.6299679044322843, -0.4541815482495894, -0.629967904432283;,
		-0.8230927329920026, -0.45418154824958934, -0.34093617309602364;,
		-0.6299679044322831, 0.4541815482495885, -0.6299679044322849;,
		-0.3409361730960238, 0.45418154824958834, -0.823092732992003;,
		-0.3409361730960248, -0.4541815482495896, -0.8230927329920021;,
		-0.6299679044322843, -0.4541815482495894, -0.629967904432283;,
		-0.3409361730960238, 0.45418154824958834, -0.823092732992003;,
		1.2606070305664858e-17, 0.45418154824958823, -0.890909154307894;,
		1.2606070305664893e-17, -0.4541815482495895, -0.8909091543078933;,
		-0.3409361730960248, -0.4541815482495896, -0.8230927329920021;,
		1.2606070305664858e-17, 0.45418154824958823, -0.890909154307894;,
		0.3409361730960232, 0.45418154824958834, -0.8230927329920034;,
		0.3409361730960241, -0.4541815482495895, -0.8230927329920024;,
		1.2606070305664893e-17, -0.4541815482495895, -0.8909091543078933;,
		0.3409361730960232, 0.45418154824958834, -0.8230927329920034;,
		0.6299679044322825, 0.45418154824958856, -0.6299679044322856;,
		0.6299679044322837, -0.4541815482495895, -0.6299679044322837;,
		0.3409361730960241, -0.4541815482495895, -0.8230927329920024;,
		0.6299679044322825, 0.45418154824958856, -0.6299679044322856;,
		0.8230927329920017, 0.45418154824958884, -0.3409361730960265;,
		0.8230927329920025, -0.45418154824958934, -0.34093617309602364;,
		0.6299679044322837, -0.4541815482495895, -0.6299679044322837;,
		0.8909091543078935, -0.45418154824958934, 9.07637062007872e-16;,
		0.8230927329920023, -0.4541815482495891, 0.34093617309602464;,
		0.6299679044322839, -0.45418154824958906, 0.6299679044322837;,
		0.34093617309602425, -0.45418154824958906, 0.8230927329920025;,
		0.0, -0.45418154824958906, 0.8909091543078936;,
		-0.34093617309602425, -0.45418154824958906, 0.8230927329920025;,
		-0.6299679044322837, -0.45418154824958906, 0.629967904432284;,
		-0.8230927329920023, -0.4541815482495891, 0.3409361730960249;,
		-0.8909091543078934, -0.45418154824958923, 6.681217262002389e-16;,
		-0.8230927329920026, -0.45418154824958934, -0.34093617309602364;,
		-0.6299679044322843, -0.4541815482495894, -0.629967904432283;,
		-0.3409361730960248, -0.4541815482495896, -0.8230927329920021;,
		1.2606070305664893e-17, -0.4541815482495895, -0.8909091543078933;,
		0.3409361730960241, -0.4541815482495895, -0.8230927329920024;,
		0.6299679044322837, -0.4541815482495895, -0.6299679044322837;,
		0.8230927329920025, -0.45418154824958934, -0.34093617309602364;;
		18;
		4;0, 1, 2, 3 ;,
		16;4, 5, 6, 7, 8, 9, 10, 11, 12, 13, 14, 15, 16, 17, 18, 19 ;,
		4;20, 21, 22, 23 ;,
		4;24, 25, 26, 27 ;,
		4;28, 29, 30, 31 ;,
		4;32, 33, 34, 35 ;,
		4;36, 37, 38, 39 ;,
		4;40, 41, 42, 43 ;,
		4;44, 45, 46, 47 ;,
		4;48, 49, 50, 51 ;,
		4;52, 53, 54, 55 ;,
		4;56, 57, 58, 59 ;,
		4;60, 61, 62, 63 ;,
		4;64, 65, 66, 67 ;,
		4;68, 69, 70, 71 ;,
		4;72, 73, 74, 75 ;,
		4;76, 77, 78, 79 ;,
		16;80, 81, 82, 83, 84, 85, 86, 87, 88, 89, 90, 91, 92, 93, 94, 95 ;;
		}
		MeshMaterialList {
			2;
			18;
			0;
			0;
			0;
			0;
			0;
			0;
			0;
			0;
			0;
			0;
			0;
			0;
			0;
			0;
			0;
			0;
			0;
			0;
			;
			{default}
			{image}
		}
	}}Frame cube2 {
	Mesh {
		30;
		-0.04168542207999981, 0.26470848512000034, 0.10975897599999992;,
		-0.04168542207999981, 2.1654922240000003, 0.10975897599999992;,
		-0.04168542207999981, 2.1654922240000003, -0.10346751999999995;,
		-0.04168542207999981, 0.26470848512000034, -0.10346751999999995;,
		-0.04168542207999981, 0.016070144000000175, 0.0031457279999999865;,
		-0.04168542207999981, 0.26470848512000034, 0.10975897599999992;,
		0.03312904191999988, 0.26470848512000034, 0.10975897599999992;,
		0.03312904191999988, 2.1654922240000003, 0.10975897599999992;,
		-0.04168542207999981, 2.1654922240000003, 0.10975897599999992;,
		-0.04168542207999981, 0.26470848512000034, 0.10975897599999992;,
		-0.04168542207999981, 0.016070144000000175, 0.0031457279999999865;,
		0.03312904191999988, 0.016070144000000175, 0.0031457279999999865;,
		0.03312904191999988, 0.26470848512000034, 0.10975897599999992;,
		-0.04168542207999981, 2.1654922240000003, 0.10975897599999992;,
		0.03312904191999988, 2.1654922240000003, 0.10975897599999992;,
		0.03312904191999988, 2.1654922240000003, -0.10346751999999995;,
		-0.04168542207999981, 2.1654922240000003, -0.10346751999999995;,
		0.03312904191999988, 2.1654922240000003, 0.10975897599999992;,
		0.03312904191999988, 0.26470848512000034, 0.10975897599999992;,
		0.03312904191999988, 0.016070144000000175, 0.0031457279999999865;,
		0.03312904191999988, 0.26470848512000034, -0.10346751999999995;,
		0.03312904191999988, 2.1654922240000003, -0.10346751999999995;,
		-0.04168542207999981, 0.26470848512000034, -0.10346751999999995;,
		-0.04168542207999981, 2.1654922240000003, -0.10346751999999995;,
		0.03312904191999988, 2.1654922240000003, -0.10346751999999995;,
		0.03312904191999988, 0.26470848512000034, -0.10346751999999995;,
		-0.04168542207999981, 0.26470848512000034, -0.10346751999999995;,
		0.03312904191999988, 0.26470848512000034, -0.10346751999999995;,
		0.03312904191999988, 0.016070144000000175, 0.0031457279999999865;,
		-0.04168542207999981, 0.016070144000000175, 0.0031457279999999865;;

		7;
		5;0, 1, 2, 3, 4 ;,
		4;5, 6, 7, 8 ;,
		4;9, 10, 11, 12 ;,
		4;13, 14, 15, 16 ;,
		5;17, 18, 19, 20, 21 ;,
		4;22, 23, 24, 25 ;,
		4;26, 27, 28, 29 ;;

		MeshNormals {
			30;		-0.45463255714462036, -0.17916514297451222, 0.8724729735224274;,
		-0.5773502691896258, 0.5773502691896258, 0.5773502691896258;,
		-0.5773502691896258, 0.5773502691896258, -0.5773502691896258;,
		-0.45463255714462036, -0.17916514297451222, -0.8724729735224274;,
		-0.7853783421043462, -0.6190160415962002, 0.0;,
		-0.45463255714462036, -0.17916514297451222, 0.8724729735224274;,
		0.45463255714462036, -0.17916514297451222, 0.8724729735224274;,
		0.5773502691896258, 0.5773502691896258, 0.5773502691896258;,
		-0.5773502691896258, 0.5773502691896258, 0.5773502691896258;,
		-0.45463255714462036, -0.17916514297451222, 0.8724729735224274;,
		-0.7853783421043462, -0.6190160415962002, 0.0;,
		0.7853783421043462, -0.6190160415962002, 0.0;,
		0.45463255714462036, -0.17916514297451222, 0.8724729735224274;,
		-0.5773502691896258, 0.5773502691896258, 0.5773502691896258;,
		0.5773502691896258, 0.5773502691896258, 0.5773502691896258;,
		0.5773502691896258, 0.5773502691896258, -0.5773502691896258;,
		-0.5773502691896258, 0.5773502691896258, -0.5773502691896258;,
		0.5773502691896258, 0.5773502691896258, 0.5773502691896258;,
		0.45463255714462036, -0.17916514297451222, 0.8724729735224274;,
		0.7853783421043462, -0.6190160415962002, 0.0;,
		0.45463255714462036, -0.17916514297451222, -0.8724729735224274;,
		0.5773502691896258, 0.5773502691896258, -0.5773502691896258;,
		-0.45463255714462036, -0.17916514297451222, -0.8724729735224274;,
		-0.5773502691896258, 0.5773502691896258, -0.5773502691896258;,
		0.5773502691896258, 0.5773502691896258, -0.5773502691896258;,
		0.45463255714462036, -0.17916514297451222, -0.8724729735224274;,
		-0.45463255714462036, -0.17916514297451222, -0.8724729735224274;,
		0.45463255714462036, -0.17916514297451222, -0.8724729735224274;,
		0.7853783421043462, -0.6190160415962002, 0.0;,
		-0.7853783421043462, -0.6190160415962002, 0.0;;
		7;
		5;0, 1, 2, 3, 4 ;,
		4;5, 6, 7, 8 ;,
		4;9, 10, 11, 12 ;,
		4;13, 14, 15, 16 ;,
		5;17, 18, 19, 20, 21 ;,
		4;22, 23, 24, 25 ;,
		4;26, 27, 28, 29 ;;
		}
		MeshMaterialList {
			2;
			7;
			0;
			0;
			0;
			0;
			0;
			0;
			0;
			;
			{default}
			{image}
		}
	}}Frame image1 {
	Mesh {
		16;
		-2.377097504, 0.00955808685153281, -0.0012030457481735368;,
		-2.3760975040000005, 0.00955808685153281, -0.0012030457481735368;,
		-2.3760975040000005, 1.5984931314811255, 1.4691370248548714;,
		-2.377097504, 1.5984931314811255, 1.4691370248548714;,
		-2.377097504, 0.00955808685153281, -0.0012030457481735368;,
		-2.377097504, 1.367928372518875, -1.4691370248548714;,
		-2.3760975040000005, 1.367928372518875, -1.4691370248548714;,
		-2.3760975040000005, 0.00955808685153281, -0.0012030457481735368;,
		-2.377097504, 1.5984931314811255, 1.4691370248548714;,
		-2.3760975040000005, 1.5984931314811255, 1.4691370248548714;,
		-2.3760975040000005, 2.9568634171484676, 0.0012030457481735368;,
		-2.377097504, 2.9568634171484676, 0.0012030457481735368;,
		-2.377097504, 1.367928372518875, -1.4691370248548714;,
		-2.377097504, 2.9568634171484676, 0.0012030457481735368;,
		-2.3760975040000005, 2.9568634171484676, 0.0012030457481735368;,
		-2.3760975040000005, 1.367928372518875, -1.4691370248548714;;

		4;
		4;0, 1, 2, 3 ;,
		4;4, 5, 6, 7 ;,
		4;8, 9, 10, 11 ;,
		4;12, 13, 14, 15 ;;

		MeshNormals {
			16;		0.0, -0.6791851428336712, 0.7339669895533489;,
		0.0, -0.6791851428336712, 0.7339669895533489;,
		0.0, -0.6791851428336712, 0.7339669895533489;,
		0.0, -0.6791851428336712, 0.7339669895533489;,
		0.0, -0.7339669895533489, -0.679185142833671;,
		0.0, -0.7339669895533489, -0.679185142833671;,
		0.0, -0.7339669895533489, -0.679185142833671;,
		0.0, -0.7339669895533489, -0.679185142833671;,
		0.0, 0.7339669895533489, 0.679185142833671;,
		0.0, 0.7339669895533489, 0.679185142833671;,
		0.0, 0.7339669895533489, 0.679185142833671;,
		0.0, 0.7339669895533489, 0.679185142833671;,
		0.0, 0.6791851428336712, -0.7339669895533489;,
		0.0, 0.6791851428336712, -0.7339669895533489;,
		0.0, 0.6791851428336712, -0.7339669895533489;,
		0.0, 0.6791851428336712, -0.7339669895533489;;
		4;
		4;0, 1, 2, 3 ;,
		4;4, 5, 6, 7 ;,
		4;8, 9, 10, 11 ;,
		4;12, 13, 14, 15 ;;
		}
		MeshMaterialList {
			2;
			4;
			0;
			0;
			0;
			0;
			;
			{default}
			{image}
		}
	}}