xof 0303txt 0064
#Exported from Wings 3D 1.4.1
		Material cube1_auv {
			1.0; 1.0; 1.0; 1.0;;
		1.0;
			1.0; 1.0; 1.0;;
			0.0; 0.0; 0.0;;
			TextureFilename { "wallsandceilingtexture.PNG"; }
		}
Frame cube1 {
	Mesh {
		48;
		-10.684000000000001, 0.0, 10.684000000000001;,
		-10.684000000000001, 4.550380005695949, 10.684000000000001;,
		10.684000000000001, 4.550380005695949, 10.684000000000001;,
		10.684000000000001, 0.0, 10.684000000000001;,
		-10.684000000000001, 0.0, 10.684000000000001;,
		10.684000000000001, 0.0, 10.684000000000001;,
		10.684000000000001, 0.0, -10.684000000000001;,
		1.0251677596054716, 0.0, -10.684000000000001;,
		1.03636599329226, 0.0, -0.061083311319427125;,
		0.0, 0.0, -0.061083311319427125;,
		0.06651156990132123, 0.0, -10.684000000000001;,
		-10.684000000000001, 0.0, -10.684000000000001;,
		-10.684000000000001, 0.0, 10.684000000000001;,
		-10.684000000000001, 0.0, -10.684000000000001;,
		-10.684000000000001, 4.550380005695949, -10.684000000000001;,
		-10.684000000000001, 4.550380005695949, 10.684000000000001;,
		-10.684000000000001, 4.550380005695949, 10.684000000000001;,
		-10.684000000000001, 4.550380005695949, -10.684000000000001;,
		0.06651156990132123, 4.550380005695949, -10.684000000000001;,
		0.0, 4.550380005695949, -0.061083311319427125;,
		1.03636599329226, 4.550380005695949, -0.061083311319427125;,
		1.0251677596054716, 4.550380005695949, -10.684000000000001;,
		10.684000000000001, 4.550380005695949, -10.684000000000001;,
		10.684000000000001, 4.550380005695949, 10.684000000000001;,
		10.684000000000001, 4.550380005695949, 10.684000000000001;,
		10.684000000000001, 4.550380005695949, -10.684000000000001;,
		10.684000000000001, 0.0, -10.684000000000001;,
		10.684000000000001, 0.0, 10.684000000000001;,
		-10.684000000000001, 0.0, -10.684000000000001;,
		0.06651156990132123, 0.0, -10.684000000000001;,
		0.06651156990132123, 4.550380005695949, -10.684000000000001;,
		-10.684000000000001, 4.550380005695949, -10.684000000000001;,
		10.684000000000001, 4.550380005695949, -10.684000000000001;,
		1.0251677596054716, 4.550380005695949, -10.684000000000001;,
		1.0251677596054716, 0.0, -10.684000000000001;,
		10.684000000000001, 0.0, -10.684000000000001;,
		0.0, 4.550380005695949, -0.061083311319427125;,
		0.0, 0.0, -0.061083311319427125;,
		1.03636599329226, 0.0, -0.061083311319427125;,
		1.03636599329226, 4.550380005695949, -0.061083311319427125;,
		0.0, 4.550380005695949, -0.061083311319427125;,
		0.06651156990132123, 4.550380005695949, -10.684000000000001;,
		0.06651156990132123, 0.0, -10.684000000000001;,
		0.0, 0.0, -0.061083311319427125;,
		1.03636599329226, 4.550380005695949, -0.061083311319427125;,
		1.03636599329226, 0.0, -0.061083311319427125;,
		1.0251677596054716, 0.0, -10.684000000000001;,
		1.0251677596054716, 4.550380005695949, -10.684000000000001;;

		10;
		4;0, 1, 2, 3 ;,
		8;4, 5, 6, 7, 8, 9, 10, 11 ;,
		4;12, 13, 14, 15 ;,
		8;16, 17, 18, 19, 20, 21, 22, 23 ;,
		4;24, 25, 26, 27 ;,
		4;28, 29, 30, 31 ;,
		4;32, 33, 34, 35 ;,
		4;36, 37, 38, 39 ;,
		4;40, 41, 42, 43 ;,
		4;44, 45, 46, 47 ;;

		MeshNormals {
			48;		0.5773502691896258, 0.5773502691896258, -0.5773502691896258;,
		0.5773502691896258, -0.5773502691896258, -0.5773502691896258;,
		-0.5773502691896258, -0.5773502691896258, -0.5773502691896258;,
		-0.5773502691896258, 0.5773502691896258, -0.5773502691896258;,
		0.5773502691896258, 0.5773502691896258, -0.5773502691896258;,
		-0.5773502691896258, 0.5773502691896258, -0.5773502691896258;,
		-0.5773502691896258, 0.5773502691896258, 0.5773502691896258;,
		0.5775529279880904, 0.5775532488906455, 0.5769444167926784;,
		0.5775529279880904, 0.5775532488906455, 0.5769444167926784;,
		-0.5785476478081248, 0.578558987773459, 0.57493661988278;,
		-0.5785476478081248, 0.578558987773459, 0.57493661988278;,
		0.5773502691896258, 0.5773502691896258, 0.5773502691896258;,
		0.5773502691896258, 0.5773502691896258, -0.5773502691896258;,
		0.5773502691896258, 0.5773502691896258, 0.5773502691896258;,
		0.5773502691896258, -0.5773502691896258, 0.5773502691896258;,
		0.5773502691896258, -0.5773502691896258, -0.5773502691896258;,
		0.5773502691896258, -0.5773502691896258, -0.5773502691896258;,
		0.5773502691896258, -0.5773502691896258, 0.5773502691896258;,
		-0.5785476478081248, -0.578558987773459, 0.57493661988278;,
		-0.5785476478081248, -0.578558987773459, 0.57493661988278;,
		0.5775529279880904, -0.5775532488906455, 0.5769444167926784;,
		0.5775529279880904, -0.5775532488906455, 0.5769444167926784;,
		-0.5773502691896258, -0.5773502691896258, 0.5773502691896258;,
		-0.5773502691896258, -0.5773502691896258, -0.5773502691896258;,
		-0.5773502691896258, -0.5773502691896258, -0.5773502691896258;,
		-0.5773502691896258, -0.5773502691896258, 0.5773502691896258;,
		-0.5773502691896258, 0.5773502691896258, 0.5773502691896258;,
		-0.5773502691896258, 0.5773502691896258, -0.5773502691896258;,
		0.5773502691896258, 0.5773502691896258, 0.5773502691896258;,
		-0.5785476478081248, 0.578558987773459, 0.57493661988278;,
		-0.5785476478081248, -0.578558987773459, 0.57493661988278;,
		0.5773502691896258, -0.5773502691896258, 0.5773502691896258;,
		-0.5773502691896258, -0.5773502691896258, 0.5773502691896258;,
		0.5775529279880904, -0.5775532488906455, 0.5769444167926784;,
		0.5775529279880904, 0.5775532488906455, 0.5769444167926784;,
		-0.5773502691896258, 0.5773502691896258, 0.5773502691896258;,
		-0.5785476478081248, -0.578558987773459, 0.57493661988278;,
		-0.5785476478081248, 0.578558987773459, 0.57493661988278;,
		0.5775529279880904, 0.5775532488906455, 0.5769444167926784;,
		0.5775529279880904, -0.5775532488906455, 0.5769444167926784;,
		-0.5785476478081248, -0.578558987773459, 0.57493661988278;,
		-0.5785476478081248, -0.578558987773459, 0.57493661988278;,
		-0.5785476478081248, 0.578558987773459, 0.57493661988278;,
		-0.5785476478081248, 0.578558987773459, 0.57493661988278;,
		0.5775529279880904, -0.5775532488906455, 0.5769444167926784;,
		0.5775529279880904, 0.5775532488906455, 0.5769444167926784;,
		0.5775529279880904, 0.5775532488906455, 0.5769444167926784;,
		0.5775529279880904, -0.5775532488906455, 0.5769444167926784;;
		10;
		4;0, 1, 2, 3 ;,
		8;4, 5, 6, 7, 8, 9, 10, 11 ;,
		4;12, 13, 14, 15 ;,
		8;16, 17, 18, 19, 20, 21, 22, 23 ;,
		4;24, 25, 26, 27 ;,
		4;28, 29, 30, 31 ;,
		4;32, 33, 34, 35 ;,
		4;36, 37, 38, 39 ;,
		4;40, 41, 42, 43 ;,
		4;44, 45, 46, 47 ;;
		}
		MeshTextureCoords {
		48;
		1.0, 0.7870469858809459;,
		1.0, 0.6805704788214189;,
		0.5000000000000002, 0.6805704788214189;,
		0.5000000000000002, 0.7870469858809459;,
		4.996003610813204e-16, 0.5000000000000002;,
		0.5000000000000001, 0.4999999999999999;,
		0.4999999999999999, 3.3306690738754696e-16;,
		0.2739883882348717, 4.440892098500626e-16;,
		0.2742504210336081, 0.2485706825318369;,
		0.2500000000000002, 0.2485706825318369;,
		0.25155633587376725, 2.220446049250313e-16;,
		0.0, 4.440892098500626e-16;,
		0.5000000000000002, 0.8935234929404728;,
		1.0, 0.893523492940473;,
		1.0, 0.7870469858809459;,
		0.5000000000000003, 0.7870469858809459;,
		0.5000000000000002, 0.9999999999999996;,
		0.4999999999999999, 0.5000000000000002;,
		0.24844366412623278, 0.5000000000000004;,
		0.2500000000000001, 0.7485706825318368;,
		0.2257495789663925, 0.7485706825318368;,
		0.2260116117651283, 0.5000000000000003;,
		0.0, 0.5000000000000002;,
		6.106226635438361e-16, 1.0;,
		1.0, 0.893523492940473;,
		0.5000000000000002, 0.893523492940473;,
		0.5000000000000002, 0.9999999999999999;,
		1.0, 1.0;,
		0.5000000000000002, 0.6805704788214189;,
		0.7515563358737674, 0.6805704788214189;,
		0.7515563358737674, 0.5740939717618918;,
		0.5000000000000002, 0.5740939717618918;,
		0.9775679476388958, 0.5740939717618918;,
		0.7515563358737675, 0.5740939717618918;,
		0.7515563358737675, 0.6805704788214189;,
		0.9775679476388957, 0.6805704788214189;,
		0.7515563358737676, 0.46761746470236487;,
		0.7515563358737676, 0.5740939717618918;,
		0.7758067569073752, 0.5740939717618918;,
		0.7758067569073752, 0.46761746470236487;,
		0.7485755547025796, 0.46761746470236487;,
		0.5000000000000002, 0.46761746470236487;,
		0.5000000000000002, 0.5740939717618918;,
		0.7485755547025796, 0.5740939717618918;,
		0.5000000000000003, 0.3611409576428378;,
		0.5000000000000003, 0.46761746470236476;,
		0.7485708206437972, 0.46761746470236487;,
		0.7485708206437972, 0.3611409576428378;;
		}
		MeshMaterialList {
			1;
			10;
			0;
			0;
			0;
			0;
			0;
			0;
			0;
			0;
			0;
			0;
			;
			{cube1_auv}
		}
	}}