xof 0303txt 0064
#Exported from Wings 3D 1.4.1
		Material cube1_auv {
			1.0; 1.0; 1.0; 1.0;;
		1.0;
			1.0; 1.0; 1.0;;
			0.0; 0.0; 0.0;;
			TextureFilename { "wallpaper.png"; }
		}
		Material default {
			0.7898538076923077; 0.8133333333333334; 0.6940444444444445; 1.0;;
		1.0;
			1.0; 1.0; 1.0;;
			0.0; 0.0; 0.0;;
		}
Frame cone2 {
	Mesh {
		64;
		0.32255999999999996, 0.0, -8.050994511588737e-18;,
		0.2980065820068406, 0.0, 0.12343836794368333;,
		0.22808436333953272, 0.0, 0.22808436333953272;,
		0.12343836794368335, 0.0, 0.2980065820068406;,
		4.916074946278572e-18, 0.0, 0.32255999999999996;,
		-0.12343836794368333, 0.0, 0.2980065820068406;,
		-0.22808436333953275, 0.0, 0.22808436333953272;,
		-0.2980065820068406, 0.0, 0.12343836794368339;,
		-0.32255999999999996, 0.0, 3.145121264170828e-17;,
		-0.29800658200684066, 0.0, -0.12343836794368332;,
		-0.22808436333953278, 0.0, -0.22808436333953272;,
		-0.12343836794368354, 0.0, -0.2980065820068405;,
		-7.408833936031546e-17, 0.0, -0.32255999999999996;,
		0.12343836794368339, 0.0, -0.29800658200684055;,
		0.22808436333953266, 0.0, -0.22808436333953278;,
		0.2980065820068405, 0.0, -0.12343836794368353;,
		0.32255999999999996, 0.0, -8.050994511588737e-18;,
		0.2980065820068405, 0.0, -0.12343836794368353;,
		-2.6384123644033134e-17, 0.3839999999999999, -5.2768247288066264e-18;,
		0.32255999999999996, 0.0, -8.050994511588737e-18;,
		-2.6384123644033134e-17, 0.3839999999999999, -5.2768247288066264e-18;,
		0.2980065820068406, 0.0, 0.12343836794368333;,
		0.2980065820068406, 0.0, 0.12343836794368333;,
		-2.6384123644033134e-17, 0.3839999999999999, -5.2768247288066264e-18;,
		0.22808436333953272, 0.0, 0.22808436333953272;,
		0.22808436333953272, 0.0, 0.22808436333953272;,
		-2.6384123644033134e-17, 0.3839999999999999, -5.2768247288066264e-18;,
		0.12343836794368335, 0.0, 0.2980065820068406;,
		0.12343836794368335, 0.0, 0.2980065820068406;,
		-2.6384123644033134e-17, 0.3839999999999999, -5.2768247288066264e-18;,
		4.916074946278572e-18, 0.0, 0.32255999999999996;,
		4.916074946278572e-18, 0.0, 0.32255999999999996;,
		-2.6384123644033134e-17, 0.3839999999999999, -5.2768247288066264e-18;,
		-0.12343836794368333, 0.0, 0.2980065820068406;,
		-0.12343836794368333, 0.0, 0.2980065820068406;,
		-2.6384123644033134e-17, 0.3839999999999999, -5.2768247288066264e-18;,
		-0.22808436333953275, 0.0, 0.22808436333953272;,
		-0.22808436333953275, 0.0, 0.22808436333953272;,
		-2.6384123644033134e-17, 0.3839999999999999, -5.2768247288066264e-18;,
		-0.2980065820068406, 0.0, 0.12343836794368339;,
		-0.2980065820068406, 0.0, 0.12343836794368339;,
		-2.6384123644033134e-17, 0.3839999999999999, -5.2768247288066264e-18;,
		-0.32255999999999996, 0.0, 3.145121264170828e-17;,
		-0.32255999999999996, 0.0, 3.145121264170828e-17;,
		-2.6384123644033134e-17, 0.3839999999999999, -5.2768247288066264e-18;,
		-0.29800658200684066, 0.0, -0.12343836794368332;,
		-0.29800658200684066, 0.0, -0.12343836794368332;,
		-2.6384123644033134e-17, 0.3839999999999999, -5.2768247288066264e-18;,
		-0.22808436333953278, 0.0, -0.22808436333953272;,
		-0.22808436333953278, 0.0, -0.22808436333953272;,
		-2.6384123644033134e-17, 0.3839999999999999, -5.2768247288066264e-18;,
		-0.12343836794368354, 0.0, -0.2980065820068405;,
		-0.12343836794368354, 0.0, -0.2980065820068405;,
		-2.6384123644033134e-17, 0.3839999999999999, -5.2768247288066264e-18;,
		-7.408833936031546e-17, 0.0, -0.32255999999999996;,
		-7.408833936031546e-17, 0.0, -0.32255999999999996;,
		-2.6384123644033134e-17, 0.3839999999999999, -5.2768247288066264e-18;,
		0.12343836794368339, 0.0, -0.29800658200684055;,
		0.12343836794368339, 0.0, -0.29800658200684055;,
		-2.6384123644033134e-17, 0.3839999999999999, -5.2768247288066264e-18;,
		0.22808436333953266, 0.0, -0.22808436333953278;,
		0.22808436333953266, 0.0, -0.22808436333953278;,
		-2.6384123644033134e-17, 0.3839999999999999, -5.2768247288066264e-18;,
		0.2980065820068405, 0.0, -0.12343836794368353;;

		17;
		16;0, 1, 2, 3, 4, 5, 6, 7, 8, 9, 10, 11, 12, 13, 14, 15 ;,
		3;16, 17, 18 ;,
		3;19, 20, 21 ;,
		3;22, 23, 24 ;,
		3;25, 26, 27 ;,
		3;28, 29, 30 ;,
		3;31, 32, 33 ;,
		3;34, 35, 36 ;,
		3;37, 38, 39 ;,
		3;40, 41, 42 ;,
		3;43, 44, 45 ;,
		3;46, 47, 48 ;,
		3;49, 50, 51 ;,
		3;52, 53, 54 ;,
		3;55, 56, 57 ;,
		3;58, 59, 60 ;,
		3;61, 62, 63 ;;

		MeshNormals {
			64;		0.9842730656299422, 0.17665370722245108, -3.248080144380329e-16;,
		0.909349739737642, 0.17665370722245125, 0.3766649951397756;,
		0.6959861592462038, 0.1766537072224512, 0.6959861592462038;,
		0.3766649951397757, 0.17665370722245105, 0.909349739737642;,
		-1.8044889691001834e-17, 0.17665370722245105, 0.9842730656299421;,
		-0.37666499513977564, 0.17665370722245105, 0.909349739737642;,
		-0.6959861592462038, 0.17665370722245105, 0.695986159246204;,
		-0.9093497397376419, 0.17665370722245102, 0.37666499513977575;,
		-0.9842730656299422, 0.17665370722245116, 2.7067334536502744e-16;,
		-0.909349739737642, 0.1766537072224512, -0.3766649951397755;,
		-0.6959861592462038, 0.1766537072224511, -0.695986159246204;,
		-0.37666499513977597, 0.17665370722245102, -0.9093497397376419;,
		-2.887182350560293e-16, 0.17665370722245088, -0.9842730656299423;,
		0.3766649951397755, 0.17665370722245094, -0.909349739737642;,
		0.6959861592462038, 0.1766537072224511, -0.6959861592462038;,
		0.9093497397376419, 0.17665370722245108, -0.3766649951397759;,
		0.9842730656299422, 0.17665370722245108, -3.248080144380329e-16;,
		0.9093497397376419, 0.17665370722245108, -0.3766649951397759;,
		-7.638839566442267e-17, 1.0, -4.092235482022643e-17;,
		0.9842730656299422, 0.17665370722245108, -3.248080144380329e-16;,
		-7.638839566442267e-17, 1.0, -4.092235482022643e-17;,
		0.909349739737642, 0.17665370722245125, 0.3766649951397756;,
		0.909349739737642, 0.17665370722245125, 0.3766649951397756;,
		-7.638839566442267e-17, 1.0, -4.092235482022643e-17;,
		0.6959861592462038, 0.1766537072224512, 0.6959861592462038;,
		0.6959861592462038, 0.1766537072224512, 0.6959861592462038;,
		-7.638839566442267e-17, 1.0, -4.092235482022643e-17;,
		0.3766649951397757, 0.17665370722245105, 0.909349739737642;,
		0.3766649951397757, 0.17665370722245105, 0.909349739737642;,
		-7.638839566442267e-17, 1.0, -4.092235482022643e-17;,
		-1.8044889691001834e-17, 0.17665370722245105, 0.9842730656299421;,
		-1.8044889691001834e-17, 0.17665370722245105, 0.9842730656299421;,
		-7.638839566442267e-17, 1.0, -4.092235482022643e-17;,
		-0.37666499513977564, 0.17665370722245105, 0.909349739737642;,
		-0.37666499513977564, 0.17665370722245105, 0.909349739737642;,
		-7.638839566442267e-17, 1.0, -4.092235482022643e-17;,
		-0.6959861592462038, 0.17665370722245105, 0.695986159246204;,
		-0.6959861592462038, 0.17665370722245105, 0.695986159246204;,
		-7.638839566442267e-17, 1.0, -4.092235482022643e-17;,
		-0.9093497397376419, 0.17665370722245102, 0.37666499513977575;,
		-0.9093497397376419, 0.17665370722245102, 0.37666499513977575;,
		-7.638839566442267e-17, 1.0, -4.092235482022643e-17;,
		-0.9842730656299422, 0.17665370722245116, 2.7067334536502744e-16;,
		-0.9842730656299422, 0.17665370722245116, 2.7067334536502744e-16;,
		-7.638839566442267e-17, 1.0, -4.092235482022643e-17;,
		-0.909349739737642, 0.1766537072224512, -0.3766649951397755;,
		-0.909349739737642, 0.1766537072224512, -0.3766649951397755;,
		-7.638839566442267e-17, 1.0, -4.092235482022643e-17;,
		-0.6959861592462038, 0.1766537072224511, -0.695986159246204;,
		-0.6959861592462038, 0.1766537072224511, -0.695986159246204;,
		-7.638839566442267e-17, 1.0, -4.092235482022643e-17;,
		-0.37666499513977597, 0.17665370722245102, -0.9093497397376419;,
		-0.37666499513977597, 0.17665370722245102, -0.9093497397376419;,
		-7.638839566442267e-17, 1.0, -4.092235482022643e-17;,
		-2.887182350560293e-16, 0.17665370722245088, -0.9842730656299423;,
		-2.887182350560293e-16, 0.17665370722245088, -0.9842730656299423;,
		-7.638839566442267e-17, 1.0, -4.092235482022643e-17;,
		0.3766649951397755, 0.17665370722245094, -0.909349739737642;,
		0.3766649951397755, 0.17665370722245094, -0.909349739737642;,
		-7.638839566442267e-17, 1.0, -4.092235482022643e-17;,
		0.6959861592462038, 0.1766537072224511, -0.6959861592462038;,
		0.6959861592462038, 0.1766537072224511, -0.6959861592462038;,
		-7.638839566442267e-17, 1.0, -4.092235482022643e-17;,
		0.9093497397376419, 0.17665370722245108, -0.3766649951397759;;
		17;
		16;0, 1, 2, 3, 4, 5, 6, 7, 8, 9, 10, 11, 12, 13, 14, 15 ;,
		3;16, 17, 18 ;,
		3;19, 20, 21 ;,
		3;22, 23, 24 ;,
		3;25, 26, 27 ;,
		3;28, 29, 30 ;,
		3;31, 32, 33 ;,
		3;34, 35, 36 ;,
		3;37, 38, 39 ;,
		3;40, 41, 42 ;,
		3;43, 44, 45 ;,
		3;46, 47, 48 ;,
		3;49, 50, 51 ;,
		3;52, 53, 54 ;,
		3;55, 56, 57 ;,
		3;58, 59, 60 ;,
		3;61, 62, 63 ;;
		}
		MeshMaterialList {
			2;
			17;
			1;
			1;
			1;
			1;
			1;
			1;
			1;
			1;
			1;
			1;
			1;
			1;
			1;
			1;
			1;
			1;
			1;
			;
			{cube1_auv}
			{default}
		}
	}}Frame cube1 {
	Mesh {
		24;
		-0.043698687999999875, 0.11953766400000002, 1.0;,
		-0.043698687999999875, 2.119537664, 1.0;,
		-0.043698687999999875, 2.119537664, -1.0;,
		-0.043698687999999875, 0.11953766400000002, -1.0;,
		-0.043698687999999875, 0.11953766400000002, 1.0;,
		0.043698687999999875, 0.11953766400000002, 1.0;,
		0.043698687999999875, 2.119537664, 1.0;,
		-0.043698687999999875, 2.119537664, 1.0;,
		-0.043698687999999875, 0.11953766400000002, 1.0;,
		-0.043698687999999875, 0.11953766400000002, -1.0;,
		0.043698687999999875, 0.11953766400000002, -1.0;,
		0.043698687999999875, 0.11953766400000002, 1.0;,
		-0.043698687999999875, 2.119537664, 1.0;,
		0.043698687999999875, 2.119537664, 1.0;,
		0.043698687999999875, 2.119537664, -1.0;,
		-0.043698687999999875, 2.119537664, -1.0;,
		0.043698687999999875, 2.119537664, 1.0;,
		0.043698687999999875, 0.11953766400000002, 1.0;,
		0.043698687999999875, 0.11953766400000002, -1.0;,
		0.043698687999999875, 2.119537664, -1.0;,
		-0.043698687999999875, 0.11953766400000002, -1.0;,
		-0.043698687999999875, 2.119537664, -1.0;,
		0.043698687999999875, 2.119537664, -1.0;,
		0.043698687999999875, 0.11953766400000002, -1.0;;

		6;
		4;0, 1, 2, 3 ;,
		4;4, 5, 6, 7 ;,
		4;8, 9, 10, 11 ;,
		4;12, 13, 14, 15 ;,
		4;16, 17, 18, 19 ;,
		4;20, 21, 22, 23 ;;

		MeshNormals {
			24;		-0.5773502691896258, -0.5773502691896258, 0.5773502691896258;,
		-0.5773502691896258, 0.5773502691896258, 0.5773502691896258;,
		-0.5773502691896258, 0.5773502691896258, -0.5773502691896258;,
		-0.5773502691896258, -0.5773502691896258, -0.5773502691896258;,
		-0.5773502691896258, -0.5773502691896258, 0.5773502691896258;,
		0.5773502691896258, -0.5773502691896258, 0.5773502691896258;,
		0.5773502691896258, 0.5773502691896258, 0.5773502691896258;,
		-0.5773502691896258, 0.5773502691896258, 0.5773502691896258;,
		-0.5773502691896258, -0.5773502691896258, 0.5773502691896258;,
		-0.5773502691896258, -0.5773502691896258, -0.5773502691896258;,
		0.5773502691896258, -0.5773502691896258, -0.5773502691896258;,
		0.5773502691896258, -0.5773502691896258, 0.5773502691896258;,
		-0.5773502691896258, 0.5773502691896258, 0.5773502691896258;,
		0.5773502691896258, 0.5773502691896258, 0.5773502691896258;,
		0.5773502691896258, 0.5773502691896258, -0.5773502691896258;,
		-0.5773502691896258, 0.5773502691896258, -0.5773502691896258;,
		0.5773502691896258, 0.5773502691896258, 0.5773502691896258;,
		0.5773502691896258, -0.5773502691896258, 0.5773502691896258;,
		0.5773502691896258, -0.5773502691896258, -0.5773502691896258;,
		0.5773502691896258, 0.5773502691896258, -0.5773502691896258;,
		-0.5773502691896258, -0.5773502691896258, -0.5773502691896258;,
		-0.5773502691896258, 0.5773502691896258, -0.5773502691896258;,
		0.5773502691896258, 0.5773502691896258, -0.5773502691896258;,
		0.5773502691896258, -0.5773502691896258, -0.5773502691896258;;
		6;
		4;0, 1, 2, 3 ;,
		4;4, 5, 6, 7 ;,
		4;8, 9, 10, 11 ;,
		4;12, 13, 14, 15 ;,
		4;16, 17, 18, 19 ;,
		4;20, 21, 22, 23 ;;
		}
		MeshTextureCoords {
		24;
		0.9994244444444444, 0.9639666666666666;,
		0.9994244444444444, 0.02396666666666669;,
		0.06506444444444442, 0.02396666666666669;,
		0.06506444444444442, 0.9639666666666666;,
		1.0083382328888888, 0.9833888888888889;,
		1.0301875768888888, 0.9833888888888889;,
		1.0301875768888888, 0.48338888888888887;,
		1.0083382328888888, 0.48338888888888887;,
		1.0284160106666664, 0.9848333333333333;,
		1.0284160106666667, 0.48483333333333334;,
		1.0065666666666666, 0.48483333333333334;,
		1.0065666666666666, 0.9848333333333333;,
		1.0083382328888888, 0.48338888888888887;,
		1.0301875768888888, 0.48338888888888887;,
		1.0301875768888888, -0.016611111111111132;,
		1.0083382328888888, -0.016611111111111132;,
		0.06681577777777781, 0.022115777777777734;,
		0.06681577777777781, 0.9590397777777777;,
		1.003739777777778, 0.9590397777777777;,
		1.003739777777778, 0.022115777777777734;,
		1.0284160106666664, 0.48483333333333334;,
		1.0284160106666667, -0.01516666666666655;,
		1.0065666666666666, -0.01516666666666655;,
		1.0065666666666666, 0.48483333333333334;;
		}
		MeshMaterialList {
			2;
			6;
			0;
			0;
			0;
			0;
			0;
			0;
			;
			{cube1_auv}
			{default}
		}
	}}