xof 0303txt 0064
#Exported from Wings 3D 1.4.1
		Material cube2_auv {
			1.0; 1.0; 1.0; 1.0;;
		1.0;
			1.0; 1.0; 1.0;;
			0.0; 0.0; 0.0;;
			TextureFilename { "Wall6.PNG"; }
		}
Frame cube2 {
	Mesh {
		24;
		-1.050890734356967, 0.0, 1.0;,
		-1.050890734356967, 2.0, 1.0;,
		-1.050890734356967, 2.0, -1.0;,
		-1.050890734356967, 0.0, -1.0;,
		-1.050890734356967, 0.0, 1.0;,
		-1.0014996537921173, 0.0, 1.0;,
		-1.0014996537921173, 2.0, 1.0;,
		-1.050890734356967, 2.0, 1.0;,
		-1.050890734356967, 0.0, 1.0;,
		-1.050890734356967, 0.0, -1.0;,
		-1.0014996537921173, 0.0, -1.0;,
		-1.0014996537921173, 0.0, 1.0;,
		-1.050890734356967, 2.0, 1.0;,
		-1.0014996537921173, 2.0, 1.0;,
		-1.0014996537921173, 2.0, -1.0;,
		-1.050890734356967, 2.0, -1.0;,
		-1.0014996537921173, 2.0, 1.0;,
		-1.0014996537921173, 0.0, 1.0;,
		-1.0014996537921173, 0.0, -1.0;,
		-1.0014996537921173, 2.0, -1.0;,
		-1.050890734356967, 0.0, -1.0;,
		-1.050890734356967, 2.0, -1.0;,
		-1.0014996537921173, 2.0, -1.0;,
		-1.0014996537921173, 0.0, -1.0;;

		6;
		4;0, 1, 2, 3 ;,
		4;4, 5, 6, 7 ;,
		4;8, 9, 10, 11 ;,
		4;12, 13, 14, 15 ;,
		4;16, 17, 18, 19 ;,
		4;20, 21, 22, 23 ;;

		MeshNormals {
			24;		-0.5773502691896258, -0.5773502691896258, 0.5773502691896258;,
		-0.5773502691896258, 0.5773502691896258, 0.5773502691896258;,
		-0.5773502691896258, 0.5773502691896258, -0.5773502691896258;,
		-0.5773502691896258, -0.5773502691896258, -0.5773502691896258;,
		-0.5773502691896258, -0.5773502691896258, 0.5773502691896258;,
		0.5773502691896258, -0.5773502691896258, 0.5773502691896258;,
		0.5773502691896258, 0.5773502691896258, 0.5773502691896258;,
		-0.5773502691896258, 0.5773502691896258, 0.5773502691896258;,
		-0.5773502691896258, -0.5773502691896258, 0.5773502691896258;,
		-0.5773502691896258, -0.5773502691896258, -0.5773502691896258;,
		0.5773502691896258, -0.5773502691896258, -0.5773502691896258;,
		0.5773502691896258, -0.5773502691896258, 0.5773502691896258;,
		-0.5773502691896258, 0.5773502691896258, 0.5773502691896258;,
		0.5773502691896258, 0.5773502691896258, 0.5773502691896258;,
		0.5773502691896258, 0.5773502691896258, -0.5773502691896258;,
		-0.5773502691896258, 0.5773502691896258, -0.5773502691896258;,
		0.5773502691896258, 0.5773502691896258, 0.5773502691896258;,
		0.5773502691896258, -0.5773502691896258, 0.5773502691896258;,
		0.5773502691896258, -0.5773502691896258, -0.5773502691896258;,
		0.5773502691896258, 0.5773502691896258, -0.5773502691896258;,
		-0.5773502691896258, -0.5773502691896258, -0.5773502691896258;,
		-0.5773502691896258, 0.5773502691896258, -0.5773502691896258;,
		0.5773502691896258, 0.5773502691896258, -0.5773502691896258;,
		0.5773502691896258, -0.5773502691896258, -0.5773502691896258;;
		6;
		4;0, 1, 2, 3 ;,
		4;4, 5, 6, 7 ;,
		4;8, 9, 10, 11 ;,
		4;12, 13, 14, 15 ;,
		4;16, 17, 18, 19 ;,
		4;20, 21, 22, 23 ;;
		}
		MeshTextureCoords {
		24;
		0.9970333333333332, 0.9961666666666665;,
		0.9970333333333332, 0.49616666666666664;,
		0.4970333333333333, 0.49616666666666664;,
		0.4970333333333333, 0.9961666666666666;,
		0.5123477701412146, 1.0;,
		0.524695540282427, 1.0;,
		0.5246955402824248, 0.5000000000000004;,
		0.5123477701412124, 0.5000000000000006;,
		0.5123477701412124, 0.5;,
		0.5123477701412124, 1.1102230246251565e-16;,
		0.49999999999999994, 0.0;,
		0.49999999999999994, 0.5;,
		0.5123477701412124, 0.5000000000000004;,
		0.5246955402824248, 0.5000000000000004;,
		0.5246955402824255, 1.1102230246251565e-15;,
		0.512347770141213, 1.1102230246251565e-15;,
		0.01234777014121241, 0.5000000000000001;,
		0.012347770141212522, 1.0;,
		0.5123477701412125, 0.9999999999999999;,
		0.5123477701412124, 0.5;,
		0.012347770141212404, 1.0;,
		0.012347770141212407, 0.4999999999999999;,
		2.7755575615628914e-17, 0.4999999999999999;,
		0.0, 1.0;;
		}
		MeshMaterialList {
			1;
			6;
			0;
			0;
			0;
			0;
			0;
			0;
			;
			{cube2_auv}
		}
	}}